<?xml version="1.0" encoding="utf-8"?>
<!-- Generator: Adobe Illustrator 23.0.0, SVG Export Plug-In . SVG Version: 6.00 Build 0)  -->
<svg version="1.1" id="Capa_1" xmlns="http://www.w3.org/2000/svg" xmlns:xlink="http://www.w3.org/1999/xlink" x="0px" y="0px"
	 viewBox="0 0 510 406" style="enable-background:new 0 0 510 406;" xml:space="preserve">
<style type="text/css">
	.st0{fill:#0F8B39;}
	.st1{fill:#FFFFFF;}
	.st2{fill:#138C3D;}
	.st3{fill:#A6CE1D;}
	.st4{fill:#F8DB14;}
	.st5{clip-path:url(#SVGID_2_);fill:#FFFFFF;}
	.st6{fill:#F79D0F;}
	.st7{clip-path:url(#SVGID_4_);fill:#FFFFFF;}
	.st8{fill:#F67622;}
	.st9{clip-path:url(#SVGID_6_);fill:#FFFFFF;}
	.st10{fill:#FA0F0C;}
	.st11{fill:#E01408;}
	.st12{fill:#BE090A;}
	.st13{clip-path:url(#SVGID_8_);fill:#FFFFFF;}
	.st14{clip-path:url(#SVGID_10_);}
	.st15{clip-path:url(#SVGID_12_);fill:#FFFFFF;}
	.st16{clip-path:url(#SVGID_14_);fill:#FFFFFF;}
	.st17{clip-path:url(#SVGID_16_);fill:#FFFFFF;}
	.st18{clip-path:url(#SVGID_18_);fill:#FFFFFF;}
	.st19{clip-path:url(#SVGID_20_);fill:none;stroke:#D6D6D6;}
	.st20{clip-path:url(#SVGID_20_);}
</style>
<polygon class="st0" points="0,100 0,126 64.1,126 77.1,113 64.1,100 "/>
<path class="st1" d="M21.3,110.6l2,4.6h-4.1L21.3,110.6z M21.3,104.6l-7.8,16.8h2.9l1.7-3.7h6.3l1.6,3.7h2.9L21.3,104.6z"/>
<polygon class="st1" points="32.1,110.3 32.1,114.3 33.8,114.3 33.8,110.3 37.8,110.3 37.8,108.6 33.8,108.6 33.8,104.6 32.1,104.6 
	32.1,108.6 28,108.6 28,110.3 "/>
<polygon class="st2" points="0,60 0,86 57,86 70,73 57,60 "/>
<path class="st1" d="M21.3,70.6l2,4.6h-4.1L21.3,70.6z M21.3,64.6l-7.8,16.8h2.9l1.7-3.7h6.3l1.6,3.7h2.9L21.3,64.6z"/>
<polygon class="st1" points="32.1,70.3 32.1,74.3 33.8,74.3 33.8,70.3 37.8,70.3 37.8,68.6 33.8,68.6 33.8,64.6 32.1,64.6 
	32.1,68.6 28,68.6 28,70.3 "/>
<polygon class="st1" points="44.1,70.3 44.1,74.3 45.8,74.3 45.8,70.3 49.8,70.3 49.8,68.6 45.8,68.6 45.8,64.6 44.1,64.6 
	44.1,68.6 40,68.6 40,70.3 "/>
<polygon class="st3" points="0,140 0,166 69.8,166 82.8,153 69.8,140 "/>
<path class="st1" d="M21.3,150.6l2,4.6h-4.1L21.3,150.6z M21.3,144.6l-7.8,16.8h2.9l1.7-3.7h6.3l1.6,3.7h2.9L21.3,144.6z"/>
<polygon class="st4" points="0,180 0,206 76.8,206 89.8,193 76.8,180 "/>
<g>
	<defs>
		<rect id="SVGID_1_" width="510" height="406"/>
	</defs>
	<clipPath id="SVGID_2_">
		<use xlink:href="#SVGID_1_"  style="overflow:visible;"/>
	</clipPath>
	<path class="st5" d="M18,194h1c1.2,0,2,0.2,2.4,0.6c0.5,0.4,0.7,0.9,0.7,1.5c0,0.6-0.2,1.1-0.7,1.5c-0.4,0.4-1.2,0.6-2.2,0.6H18
		V194z M18.5,191.7H18v-4.1h0.6c1.5,0,2.2,0.7,2.2,2C20.8,191.1,20.1,191.7,18.5,191.7 M24,193.8c-0.4-0.6-1-1.1-1.7-1.4
		c0.7-0.8,1.1-1.7,1.1-2.7c0-0.6-0.1-1.3-0.4-1.8c-0.2-0.6-0.6-1.1-1.1-1.5c-0.5-0.4-1-0.7-1.6-0.8c-0.6-0.2-1.4-0.2-2.5-0.2h-2.5
		v15.6H19c1.1,0,2-0.1,2.6-0.3c0.7-0.2,1.3-0.6,1.8-1.1c0.9-0.9,1.3-1.9,1.3-3.2C24.8,195.3,24.5,194.5,24,193.8"/>
</g>
<polygon class="st6" points="0,220 0,246 83.9,246 96.9,233 83.9,220 "/>
<g>
	<defs>
		<rect id="SVGID_3_" width="510" height="406"/>
	</defs>
	<clipPath id="SVGID_4_">
		<use xlink:href="#SVGID_3_"  style="overflow:visible;"/>
	</clipPath>
	<path class="st7" d="M22.6,227.4c1.4,0,2.7,0.5,4,1.6l0.3,0.3v-3.2l-0.1-0.1c-1.3-0.8-2.7-1.2-4.1-1.2c-2.6,0-4.7,1-6.3,2.9
		c-1.3,1.6-2,3.3-2,5.3c0,2.2,0.8,4.1,2.4,5.7c1.6,1.6,3.5,2.3,5.7,2.3c1.5,0,2.9-0.4,4.2-1.2l0.1-0.1v-3.3l-0.3,0.3
		c-0.7,0.6-1.4,1.1-2,1.3c-0.6,0.2-1.2,0.4-2,0.4c-1.5,0-2.8-0.5-3.8-1.6c-1.1-1.1-1.6-2.4-1.6-3.9c0-1.6,0.5-2.9,1.6-4
		C19.9,228,21.2,227.4,22.6,227.4"/>
</g>
<polygon class="st8" points="0,260 0,286 91,286 104,273 91,260 "/>
<g>
	<defs>
		<rect id="SVGID_5_" width="510" height="406"/>
	</defs>
	<clipPath id="SVGID_6_">
		<use xlink:href="#SVGID_5_"  style="overflow:visible;"/>
	</clipPath>
	<path class="st9" d="M24.8,273c0,1.6-0.6,2.9-1.6,3.9c-0.5,0.5-1.1,0.8-1.8,1.1c-0.6,0.2-1.5,0.3-2.5,0.3H18v-10.6h0.9
		c1.9,0,3.4,0.5,4.3,1.3C24.3,270.1,24.8,271.4,24.8,273 M25.1,267.2c-0.8-0.7-1.7-1.2-2.7-1.5c-1-0.3-2.2-0.5-3.7-0.5h-3.4v15.6
		h3.4c1.5,0,2.8-0.1,3.6-0.4c0.9-0.3,1.8-0.8,2.7-1.6c1.7-1.5,2.5-3.4,2.5-5.8C27.5,270.6,26.7,268.7,25.1,267.2"/>
</g>
<polygon class="st10" points="0,300 0,326 98.1,326 111.1,313 98.1,300 "/>
<polygon class="st1" points="24.1,307.7 24.1,305.2 15.3,305.2 15.3,320.8 24.1,320.8 24.1,318.3 18,318.3 18,313.5 23.9,313.5 
	23.9,311 18,311 18,307.7 "/>
<polygon class="st11" points="0,340 0,366 105.2,366 118.2,353 105.2,340 "/>
<polygon class="st1" points="23.3,347.7 23.3,345.2 15.3,345.2 15.3,360.8 18,360.8 18,353.5 23.1,353.5 23.1,351 18,351 18,347.7 
	"/>
<polygon class="st12" points="0,380 0,406 112.3,406 125.3,393 112.3,380 "/>
<g>
	<defs>
		<rect id="SVGID_7_" width="510" height="406"/>
	</defs>
	<clipPath id="SVGID_8_">
		<use xlink:href="#SVGID_7_"  style="overflow:visible;"/>
	</clipPath>
	<path class="st13" d="M23.2,392.5v2.5H27c-0.1,0.9-0.6,1.8-1.4,2.5c-0.9,0.7-1.8,1.1-2.9,1.1c-1.3,0-2.5-0.5-3.6-1.5
		c-1.2-1.1-1.8-2.4-1.8-4.1c0-1.6,0.5-2.9,1.6-4c1.1-1.1,2.3-1.6,3.9-1.6c1.8,0,3.2,0.8,4.4,2.4l0.1,0.2l1.9-1.8l-0.1-0.1
		c-1-1.1-2-1.9-3-2.4c-1-0.5-2.1-0.8-3.4-0.8c-2.3,0-4.2,0.8-5.8,2.4c-1.6,1.6-2.4,3.5-2.4,5.8c0,2.2,0.8,4.1,2.3,5.7
		c1.5,1.6,3.4,2.4,5.6,2.4c2.2,0,4.1-0.8,5.5-2.4c0.6-0.7,1.1-1.5,1.4-2.4c0.3-0.9,0.4-1.9,0.4-3.1v-0.7H23.2z"/>
</g>
<polygon points="231.2,60 231.2,86 174.2,86 161.2,73 174.2,60 "/>
<path class="st1" d="M189.7,70.6l2,4.6h-4.1L189.7,70.6z M189.7,64.6l-7.8,16.8h2.9l1.7-3.7h6.3l1.6,3.7h2.9L189.7,64.6z"/>
<polygon class="st1" points="200.5,70.3 200.5,74.3 202.2,74.3 202.2,70.3 206.2,70.3 206.2,68.6 202.2,68.6 202.2,64.6 200.5,64.6 
	200.5,68.6 196.4,68.6 196.4,70.3 "/>
<polygon class="st1" points="212.5,70.3 212.5,74.3 214.2,74.3 214.2,70.3 218.2,70.3 218.2,68.6 214.2,68.6 214.2,64.6 212.5,64.6 
	212.5,68.6 208.4,68.6 208.4,70.3 "/>
<g>
	<defs>
		<rect id="SVGID_9_" width="510" height="406"/>
	</defs>
	<clipPath id="SVGID_10_">
		<use xlink:href="#SVGID_9_"  style="overflow:visible;"/>
	</clipPath>
	<path class="st14" d="M30.4,26.7c-0.5,0-0.9-0.4-0.9-0.9V7.2c0-0.5,0.4-0.9,0.9-0.9c0.5,0,0.9,0.4,0.9,0.9v18.6
		C31.3,26.3,30.9,26.7,30.4,26.7 M23.5,26.7c-0.5,0-0.9-0.4-0.9-0.9V7.2c0-0.5,0.4-0.9,0.9-0.9c0.5,0,0.9,0.4,0.9,0.9v18.6
		C24.4,26.3,24,26.7,23.5,26.7 M16.5,26.7c-0.5,0-0.9-0.4-0.9-0.9V7.2c0-0.5,0.4-0.9,0.9-0.9c0.5,0,0.9,0.4,0.9,0.9v18.6
		C17.5,26.3,17,26.7,16.5,26.7 M9.6,26.7c-0.5,0-0.9-0.4-0.9-0.9V7.2c0-0.5,0.4-0.9,0.9-0.9c0.5,0,0.9,0.4,0.9,0.9v18.6
		C10.5,26.3,10.1,26.7,9.6,26.7 M39.1,23.2c-0.5,0-0.9,0.4-0.9,0.9v1.7c0,0.5-0.4,0.9-0.9,0.9h-0.9V2.5c0-1.4-1.1-2.5-2.5-2.5
		c-1.4,0-2.5,1.1-2.5,2.5v1.2c0,0.5-0.4,0.9-0.9,0.9c-0.5,0-0.9-0.4-0.9-0.9V2.5c0-1.4-1.1-2.5-2.5-2.5c-1.4,0-2.5,1.1-2.5,2.5v1.2
		c0,0.5-0.4,0.9-0.9,0.9c-0.5,0-0.9-0.4-0.9-0.9V2.5C22.5,1.1,21.4,0,20,0c-1.4,0-2.5,1.1-2.5,2.5v1.2c0,0.5-0.4,0.9-0.9,0.9
		c-0.5,0-0.9-0.4-0.9-0.9V2.5c0-1.4-1.1-2.5-2.5-2.5c-1.4,0-2.5,1.1-2.5,2.5v1.2c0,0.5-0.4,0.9-0.9,0.9c-0.5,0-0.9-0.4-0.9-0.9V2.5
		C8.7,1.1,7.5,0,6.1,0C4.7,0,3.6,1.1,3.6,2.5v24.1H0.9c-0.5,0-0.9,0.4-0.9,0.9s0.4,0.9,0.9,0.9h2.7v2.1c0,1.4,1.1,2.5,2.5,2.5
		c1.4,0,2.5-1.1,2.5-2.5v-1.2c0-0.5,0.4-0.9,0.9-0.9c0.5,0,0.9,0.4,0.9,0.9v1.2c0,1.4,1.1,2.5,2.5,2.5c1.4,0,2.5-1.1,2.5-2.5v-1.2
		c0-0.5,0.4-0.9,0.9-0.9c0.5,0,0.9,0.4,0.9,0.9v1.2c0,1.4,1.1,2.5,2.5,2.5c1.4,0,2.5-1.1,2.5-2.5v-1.2c0-0.5,0.4-0.9,0.9-0.9
		c0.5,0,0.9,0.4,0.9,0.9v1.2c0,1.4,1.1,2.5,2.5,2.5c1.4,0,2.5-1.1,2.5-2.5v-1.2c0-0.5,0.4-0.9,0.9-0.9c0.5,0,0.9,0.4,0.9,0.9v1.2
		c0,1.4,1.1,2.5,2.5,2.5c1.4,0,2.5-1.1,2.5-2.5v-2.1h0.9c1.4,0,2.6-1.2,2.6-2.6v-1.7C40,23.6,39.6,23.2,39.1,23.2"/>
</g>
<polygon class="st10" points="263.2,300 263.2,326 361.4,326 374.4,313 361.4,300 "/>
<g>
	<defs>
		<rect id="SVGID_11_" width="510" height="406"/>
	</defs>
	<clipPath id="SVGID_12_">
		<use xlink:href="#SVGID_11_"  style="overflow:visible;"/>
	</clipPath>
	<path class="st15" d="M286.4,312.5v2.5h3.8c-0.1,0.9-0.6,1.8-1.4,2.5c-0.9,0.7-1.8,1.1-2.9,1.1c-1.3,0-2.5-0.5-3.6-1.5
		c-1.2-1.1-1.8-2.4-1.8-4.1c0-1.6,0.5-2.9,1.6-4c1.1-1.1,2.3-1.6,3.9-1.6c1.8,0,3.2,0.8,4.4,2.4l0.1,0.2l1.9-1.8l-0.1-0.1
		c-1-1.1-2-1.9-3-2.4c-1-0.5-2.1-0.8-3.4-0.8c-2.3,0-4.2,0.8-5.8,2.4c-1.6,1.6-2.4,3.5-2.4,5.8c0,2.2,0.8,4.1,2.3,5.7
		c1.5,1.6,3.4,2.4,5.6,2.4c2.2,0,4.1-0.8,5.5-2.4c0.6-0.7,1.1-1.5,1.4-2.4c0.3-0.9,0.4-1.9,0.4-3.1v-0.7H286.4z"/>
</g>
<polygon class="st2" points="263.2,60 263.2,86 320.2,86 333.2,73 320.2,60 "/>
<path class="st1" d="M284.5,70.6l2,4.6h-4.1L284.5,70.6z M284.6,64.6l-7.8,16.8h2.9l1.7-3.7h6.3l1.6,3.7h2.9L284.6,64.6z"/>
<polygon class="st0" points="263.2,100 263.2,126 327.3,126 340.3,113 327.3,100 "/>
<g>
	<defs>
		<rect id="SVGID_13_" width="510" height="406"/>
	</defs>
	<clipPath id="SVGID_14_">
		<use xlink:href="#SVGID_13_"  style="overflow:visible;"/>
	</clipPath>
	<path class="st16" d="M281.2,114h1c1.2,0,2,0.2,2.4,0.6c0.5,0.4,0.7,0.9,0.7,1.5c0,0.6-0.2,1.1-0.7,1.5c-0.5,0.4-1.2,0.6-2.2,0.6
		h-1.2V114z M281.8,111.7h-0.5v-4.1h0.6c1.5,0,2.2,0.7,2.2,2C284.1,111.1,283.3,111.7,281.8,111.7 M287.3,113.8
		c-0.4-0.6-1-1.1-1.7-1.4c0.7-0.8,1.1-1.7,1.1-2.7c0-0.6-0.1-1.3-0.4-1.8c-0.2-0.6-0.6-1.1-1.1-1.5c-0.5-0.4-1-0.7-1.6-0.8
		c-0.6-0.2-1.4-0.2-2.5-0.2h-2.5v15.6h3.7c1.1,0,2-0.1,2.6-0.3c0.7-0.2,1.3-0.6,1.8-1.1c0.9-0.9,1.3-1.9,1.3-3.2
		C288,115.3,287.8,114.5,287.3,113.8"/>
</g>
<polygon class="st3" points="263.2,140 263.2,166 333,166 346,153 333,140 "/>
<g>
	<defs>
		<rect id="SVGID_15_" width="510" height="406"/>
	</defs>
	<clipPath id="SVGID_16_">
		<use xlink:href="#SVGID_15_"  style="overflow:visible;"/>
	</clipPath>
	<path class="st17" d="M285.9,147.4c1.4,0,2.7,0.5,4,1.6l0.3,0.3v-3.2l-0.1-0.1c-1.3-0.8-2.7-1.2-4.1-1.2c-2.6,0-4.7,1-6.3,2.9
		c-1.3,1.6-2,3.3-2,5.3c0,2.2,0.8,4.1,2.4,5.7c1.6,1.6,3.5,2.3,5.7,2.3c1.5,0,2.9-0.4,4.2-1.2l0.1-0.1v-3.3l-0.3,0.3
		c-0.7,0.6-1.4,1.1-2,1.3c-0.6,0.2-1.2,0.4-2,0.4c-1.5,0-2.8-0.5-3.8-1.6c-1.1-1.1-1.6-2.4-1.6-3.9c0-1.6,0.5-2.9,1.6-4
		C283.1,148,284.4,147.4,285.9,147.4"/>
</g>
<polygon class="st4" points="263.2,180 263.2,206 340.1,206 353.1,193 340.1,180 "/>
<g>
	<defs>
		<rect id="SVGID_17_" width="510" height="406"/>
	</defs>
	<clipPath id="SVGID_18_">
		<use xlink:href="#SVGID_17_"  style="overflow:visible;"/>
	</clipPath>
	<path class="st18" d="M288.1,193c0,1.6-0.6,2.9-1.6,3.9c-0.5,0.5-1.1,0.8-1.8,1.1c-0.6,0.2-1.5,0.3-2.5,0.3h-0.9v-10.6h0.9
		c1.9,0,3.4,0.5,4.3,1.3C287.5,190.1,288.1,191.4,288.1,193 M288.3,187.2c-0.8-0.7-1.7-1.2-2.7-1.5c-1-0.3-2.2-0.5-3.7-0.5h-3.4
		v15.6h3.4c1.5,0,2.8-0.1,3.6-0.4c0.9-0.3,1.8-0.8,2.7-1.6c1.7-1.5,2.5-3.4,2.5-5.8C290.7,190.6,289.9,188.7,288.3,187.2"/>
</g>
<polygon class="st6" points="263.2,220 263.2,246 347.2,246 360.2,233 347.2,220 "/>
<polygon class="st1" points="288.4,227.7 288.4,225.2 279.6,225.2 279.6,240.8 288.4,240.8 288.4,238.3 282.3,238.3 282.3,233.5 
	288.2,233.5 288.2,231 282.3,231 282.3,227.7 "/>
<polygon class="st8" points="263.2,260 263.2,286 354.3,286 367.3,273 354.3,260 "/>
<polygon class="st1" points="288.6,267.7 288.6,265.2 280.7,265.2 280.7,280.8 283.3,280.8 283.3,273.5 288.5,273.5 288.5,271 
	283.3,271 283.3,267.7 "/>
<polygon points="494.5,60 494.5,86 437.5,86 424.5,73 437.5,60 "/>
<path class="st1" d="M473.9,70.6l2,4.6h-4.1L473.9,70.6z M473.9,64.6l-7.8,16.8h2.9l1.7-3.7h6.3l1.6,3.7h2.9L473.9,64.6z"/>
<g>
	<defs>
		<rect id="SVGID_19_" width="510" height="406"/>
	</defs>
	<clipPath id="SVGID_20_">
		<use xlink:href="#SVGID_19_"  style="overflow:visible;"/>
	</clipPath>
	<line class="st19" x1="509.5" y1="0" x2="509.5" y2="406"/>
	<path class="st20" d="M291.2,13.3h-17.3v-0.7c0,0,0,0,0,0c0,0,0-0.1,0-0.1c0-1.5-0.8-2.8-2-3.6c-0.1-0.1-0.3-0.1-0.4,0l-5.9,2.5
		c-0.1,0.1-0.2,0.2-0.3,0.3c-0.1,0.3-0.1,0.6-0.1,0.9v20c0,0.3,0.2,0.5,0.5,0.5h7.8c0.3,0,0.5-0.2,0.5-0.5v-8.4
		c0-2.7,3.7-5.3,9.5-6.5v1.6c0,0.3,0.2,0.5,0.5,0.5h6.1c0.3,0,0.5-0.2,0.5-0.5v-2.4c0.3,0,0.5,0,0.8,0c0.3,0,0.5-0.2,0.5-0.5v-2.6
		C291.6,13.5,291.4,13.3,291.2,13.3 M281.7,3.5L265,10.6c-0.1,0-0.1,0-0.2,0c-0.2,0-0.3-0.1-0.4-0.3l-1.1-2.5c0-0.1,0-0.2,0-0.4
		c0-0.1,0.1-0.2,0.2-0.2l16.7-7.1C280.5,0,280.7,0,281,0c0.7,0,1.4,0.4,1.7,1.1c0.2,0.5,0.2,1,0,1.4C282.5,3,282.1,3.3,281.7,3.5
		 M287.2,30.8v-8h-2.7V33h5.9v-2.3H287.2z"/>
	<line class="st19" x1="246.8" y1="0" x2="246.8" y2="406"/>
</g>
</svg>
