<?xml version="1.0" encoding="utf-8"?>
<!-- Generator: Adobe Illustrator 23.0.0, SVG Export Plug-In . SVG Version: 6.00 Build 0)  -->
<svg version="1.1" id="Capa_1" xmlns="http://www.w3.org/2000/svg" xmlns:xlink="http://www.w3.org/1999/xlink" x="0px" y="0px"
	 viewBox="0 0 30 30" style="enable-background:new 0 0 30 30;" xml:space="preserve">
<path fill="#000000" d="M16.6,24h-3.7v-9H11v-3.1h1.9V10c0-2.5,1.1-4,4-4h2.5v3.1h-1.6c-1.2,0-1.2,0.4-1.2,1.2l0,1.6h2.8L19.1,15h-2.5V24z"/>
</svg>
