<?xml version="1.0" encoding="utf-8"?>
<!-- Generator: Adobe Illustrator 23.0.0, SVG Export Plug-In . SVG Version: 6.00 Build 0)  -->
<svg version="1.1" id="Capa_1" xmlns="http://www.w3.org/2000/svg" xmlns:xlink="http://www.w3.org/1999/xlink" x="0px" y="0px"
	 viewBox="0 0 40 40" style="enable-background:new 0 0 40 40;" xml:space="preserve">
<style type="text/css">
	.st0{fill:#888888;}
</style>
<path class="st0" d="M15,19.3h-4.2c-0.6,0-1,0.4-1,1v8.3H2V2h8.7c0.6,0,1-0.4,1-1c0-0.6-0.4-1-1-1H1C0.4,0,0,0.4,0,1v28.7
	c0,0.6,0.4,1,1,1h8.8V39c0,0.6,0.4,1,1,1h3.4c0.6,0,1-0.4,1-1c0-0.6-0.4-1-1-1h-2.4V21.3H15c0.6,0,1-0.4,1-1
	C16,19.8,15.6,19.3,15,19.3"/>
<path class="st0" d="M39,28.3c-0.6,0-1,0.4-1,1V38H27.8c-0.5-5.5-5.2-9.8-10.8-9.8c-0.6,0-1,0.4-1,1c0,0.6,0.4,1,1,1
	c4.9,0,8.8,4,8.8,8.8c0,0.6,0.4,1,1,1H39c0.6,0,1-0.4,1-1v-9.7C40,28.7,39.6,28.3,39,28.3"/>
<path class="st0" d="M39,9.7h-8.8V1c0-0.6-0.4-1-1-1h-9.7c-0.6,0-1,0.4-1,1c0,0.6,0.4,1,1,1h8.7v17.3h-4.4c-0.6,0-1,0.4-1,1
	c0,0.6,0.4,1,1,1h4.4v8.2c0,0.6,0.4,1,1,1c0.6,0,1-0.4,1-1V11.7H38v8.7c0,0.6,0.4,1,1,1c0.6,0,1-0.4,1-1v-9.7
	C40,10.2,39.6,9.7,39,9.7"/>
</svg>
