<?xml version="1.0" encoding="utf-8"?>
<!-- Generator: Adobe Illustrator 23.0.0, SVG Export Plug-In . SVG Version: 6.00 Build 0)  -->
<svg version="1.1" id="Capa_1" xmlns="http://www.w3.org/2000/svg" xmlns:xlink="http://www.w3.org/1999/xlink" x="0px" y="0px"
	 viewBox="0 0 112 83" style="enable-background:new 0 0 112 83;" xml:space="preserve">
<style type="text/css">
	.st0{fill:#FFFFFF;}
	.st1{font-family:'MinionPro-Regular';}
	.st2{font-size:12px;}
	.st3{letter-spacing:-1;}
</style>
<path class="st0" d="M93.6,4.7h-0.3c-0.1,0.5-0.7,1.5-1,1.8c-0.2,0.2-0.8,0.3-1.4,0.3c-1,0-1.2-0.1-1.2-0.9V1.2
	c0-0.2,0.1-0.4,0.3-0.5c0.3-0.1,0.7-0.2,1-0.2V0.3h-3.9v0.3c0.2,0,0.7,0.1,0.9,0.2c0.2,0.1,0.3,0.3,0.3,0.5v4.9
	c0,0.2-0.1,0.4-0.3,0.5c-0.2,0.1-0.7,0.1-0.9,0.1v0.3h6.3L93.6,4.7z M83.3,4.3h-2.1l1-2.5L83.3,4.3z M86.8,7.1V6.8
	c-0.2,0-0.6-0.1-0.8-0.2c-0.2-0.1-0.3-0.3-0.4-0.4c-0.4-0.9-1.4-3.4-2.5-6h-0.6c-0.8,1.9-1.6,4-2.4,5.7c-0.1,0.3-0.3,0.6-0.6,0.7
	c-0.2,0.1-0.7,0.2-0.9,0.2v0.3h3.2V6.8c-0.4,0-1.3-0.2-1.3-0.5c0-0.1,0-0.3,0.1-0.5c0.1-0.3,0.2-0.6,0.4-1h2.4l0.6,1.5
	c0,0.1,0,0.1,0,0.2c0,0.2-0.8,0.3-1.2,0.4v0.3H86.8z M78.3,7.1V6.8c-0.2,0-0.8-0.1-0.9-0.2c-0.2-0.1-0.3-0.2-0.3-0.4v-5
	c0-0.2,0.1-0.4,0.3-0.4c0.2-0.1,0.7-0.1,0.9-0.2V0.3h-3.9v0.3c0.2,0,0.7,0.1,0.9,0.2c0.2,0.1,0.3,0.2,0.3,0.4v5
	c0,0.2-0.1,0.4-0.3,0.4c-0.1,0-0.7,0.1-0.9,0.1v0.3H78.3z M74,5.2L73.6,5c-0.4,1-1,1.7-2.3,1.7c-1.3,0-2.3-1.2-2.3-3
	c0-2.2,0.9-3.2,1.9-3.2c1.3,0,2.1,1.2,2.4,2.3h0.3l-0.1-2.6h-0.5l-0.3,0.4c-0.3-0.3-1-0.5-1.6-0.5c-2.2,0-3.7,1.6-3.7,3.7
	c0,2.1,1.4,3.5,3.5,3.5C72.6,7.3,73.6,6.3,74,5.2 M67.4,0.6V0.3h-3.6v0.3c0.3,0,1,0.2,1.3,0.3c0.3,0.2,0.3,0.7,0.3,1.3v3l-4.1-5
	h-2.7v0.3c0.4,0,1.2,0.3,1.4,0.4c0.2,0.2,0.3,0.5,0.3,0.8v3.3c0,0.7-0.1,1.2-0.3,1.4C60,6.6,59.3,6.8,59,6.8v0.3h3.6V6.8
	c-0.2,0-1.2-0.2-1.3-0.3C61.1,6.3,61,5.8,61,5.1V1.7l4.5,5.5H66v-5c0-0.6,0-1.2,0.3-1.3C66.5,0.7,67.2,0.6,67.4,0.6 M58.5,4.8h-0.3
	c-0.1,0.3-0.5,1.4-0.9,1.7c-0.2,0.2-1,0.2-1.7,0.2c-1,0-1.2-0.1-1.2-0.9V3.7h0.8c0.6,0,0.7,0.2,0.9,0.3c0.1,0.1,0.3,0.7,0.3,1h0.4
	v-3h-0.4c0,0.3-0.2,0.8-0.3,1c-0.1,0.1-0.3,0.3-0.9,0.3h-0.8V0.6h1.2c0.3,0,0.6,0,0.9,0.1c0.4,0.1,1,0.9,1.1,1.4H58V0.3h-6.1v0.3
	c0.2,0,0.8,0.1,1,0.2C53,0.9,53.1,1,53.1,1.2v5c0,0.2-0.1,0.4-0.3,0.5c-0.2,0.1-0.7,0.1-1,0.1v0.3h6.5L58.5,4.8z M49.9,3.7
	c0,1.7-0.7,3-2.4,3c-0.7,0-1-0.3-1-0.7V0.6c0.2,0,0.5,0,0.7,0C48.9,0.6,49.9,1.9,49.9,3.7 M51.5,3.7c0-2.7-2.5-3.4-3.9-3.4h-3.6v0.3
	c0.2,0,0.6,0.1,0.9,0.2c0.2,0.1,0.3,0.3,0.3,0.5v5c0,0.2-0.1,0.4-0.3,0.5c-0.1,0-0.7,0.1-0.9,0.1v0.3h3.4C49.4,7.1,51.5,6,51.5,3.7
	 M43.2,7.1V6.8c-0.2,0-0.8-0.1-0.9-0.2c-0.2-0.1-0.3-0.2-0.3-0.4v-5c0-0.2,0.1-0.4,0.3-0.4c0.2-0.1,0.7-0.1,0.9-0.2V0.3h-3.9v0.3
	c0.2,0,0.7,0.1,0.9,0.2c0.2,0.1,0.3,0.2,0.3,0.4v5c0,0.2-0.1,0.4-0.3,0.4c-0.1,0-0.7,0.1-0.9,0.1v0.3H43.2z M38.6,5.1
	c0-1-0.5-1.5-1.5-1.9c-0.5-0.2-1-0.3-1.5-0.5c-0.6-0.3-1-0.6-1-1.2c0-0.7,0.7-1,1-1c1.4,0,2.1,1.1,2.4,2.2h0.3l-0.1-2.4h-0.4
	l-0.4,0.4c-0.4-0.3-1-0.5-1.6-0.5c-1.3,0-2.3,0.8-2.3,1.9c0,0.9,0.4,1.5,1.2,1.9c0.6,0.3,1,0.3,1.6,0.5c0.7,0.2,1.1,0.6,1.1,1.2
	c0,0.7-0.4,1.3-1.4,1.3c-1.4,0-2.1-1.2-2.5-2.3h-0.3l0.1,2.6h0.4l0.4-0.5c0.4,0.2,1,0.5,1.9,0.5C37.6,7.3,38.6,6.4,38.6,5.1
	 M32.6,4.8h-0.3c-0.1,0.3-0.5,1.4-0.9,1.7c-0.2,0.2-1,0.2-1.7,0.2c-1,0-1.2-0.1-1.2-0.9V3.7h0.8c0.6,0,0.7,0.2,0.9,0.3
	c0.1,0.1,0.3,0.7,0.3,1h0.4v-3h-0.4c0,0.3-0.2,0.8-0.3,1c-0.1,0.1-0.3,0.3-0.9,0.3h-0.8V0.6h1.2c0.3,0,0.6,0,0.9,0.1
	c0.4,0.1,1,0.9,1.1,1.4H32V0.3h-6.1v0.3c0.2,0,0.8,0.1,1,0.2C27,0.9,27.1,1,27.1,1.2v5c0,0.2-0.1,0.4-0.3,0.5
	c-0.2,0.1-0.7,0.1-1,0.1v0.3h6.5L32.6,4.8z M22.5,2c0,1.1-0.8,1.4-1.6,1.4h-0.6V0.6h0.8C21.8,0.6,22.5,0.9,22.5,2 M25.5,5.2h-0.4
	l0,0.4c0,0.7-0.3,1-0.6,1c-0.1,0-0.4,0-0.5-0.4c-0.1-0.5-0.2-1-0.3-1.5c-0.2-0.7-1.1-1-1.6-1V3.6c0.8-0.2,2-0.7,2-1.7
	c0-1.1-1.2-1.6-2.3-1.6h-4v0.3c0.2,0,0.7,0.1,0.9,0.2C18.9,0.8,19,1,19,1.2v5c0,0.2-0.1,0.4-0.3,0.5c-0.1,0-0.7,0.1-0.9,0.1v0.3h3.8
	V6.8c-0.2,0-0.7-0.1-0.9-0.1c-0.3-0.1-0.3-0.3-0.3-0.5V3.8h0.6c1.2,0,1.4,0.9,1.5,1.7c0.2,1.2,0.6,1.8,1.5,1.8c1,0,1.6-0.7,1.6-1.6
	L25.5,5.2z"/>
<path class="st0" d="M84.4,73.6c0.5,0,0.8,0.3,0.8,0.8c0,1-0.5,2.1-3.4,2.2C82.2,75,83.3,73.6,84.4,73.6 M86.3,74.7
	c0-0.9-0.6-1.5-1.9-1.5c-2.2,0-4,2.3-4,4.5c0,1.8,1.2,2.4,2.4,2.4c1,0,1.9-0.5,2.7-1.5l-0.2-0.2c-0.6,0.7-1.3,1.2-2.1,1.2
	c-1.1,0-1.5-0.7-1.5-2c0-0.3,0-0.6,0.1-0.9C84.8,76.9,86.3,75.9,86.3,74.7 M80.7,73.7l0.1-0.3H79l0.7-2.3l-1.3,0.2l-0.6,2.2h-1.3
	l-0.1,0.3h1.3l-1.4,4.7c-0.1,0.3-0.1,0.5-0.1,0.7c0,0.7,0.4,1.1,1.4,1.1c0.7,0,1.5-0.4,1.9-0.7v-0.1c-0.4,0.1-1,0.2-1.3,0.2
	c-0.5,0-0.8-0.2-0.8-0.7c0-0.2,0-0.4,0.1-0.7l1.3-4.6H80.7z M70,79.8c0.4,0.2,0.9,0.3,1.4,0.3c2.2,0,4-2.7,4-4.8
	c0-1.4-0.8-2.1-1.8-2.1c-0.8,0-1.5,0.4-2.3,1.2l0,0l0.4-1.1l-2.4,0.1v0.2c0.9,0.1,1.1,0.2,1,0.7l-1.6,6l-0.6,2
	c-0.1,0.2-0.4,0.4-1.1,0.4v0.2h3.8v-0.2c-1.1,0-1.4-0.2-1.3-0.5L70,79.8z M71.5,79.9c-0.5,0-1.2-0.3-1.3-0.8l1.1-4.2
	c0.4-0.5,1.1-0.8,1.6-0.8c0.8,0,1.3,0.5,1.3,1.6C74.1,77.5,73.1,79.9,71.5,79.9 M60.3,73.3L58,73.4v0.2c0.9,0.1,1.1,0.3,0.9,0.8
	L58,77.7l-0.7,2.4h1.3l1.2-5c0.8-0.6,1.4-1,2.1-1c0.6,0,0.8,0.3,0.8,0.7c0,0.2-0.1,0.6-0.2,0.9l-1.3,4.4h1.2l1.3-4.5
	c0.1-0.2,0.1-0.4,0.1-0.5c0.8-0.6,1.4-0.9,2-0.9c0.5,0,0.7,0.3,0.7,0.7c0,0.3-0.1,0.6-0.2,0.9l-1,3c-0.1,0.3-0.1,0.5-0.1,0.7
	c0,0.6,0.4,0.8,1.2,0.8c0.6,0,1.1-0.2,1.3-0.3v-0.1c-0.9,0.1-1.3,0-1.3-0.4c0-0.2,0-0.4,0.1-0.7l1-3.1c0.1-0.4,0.2-0.7,0.2-1
	c0-0.8-0.5-1.3-1.3-1.3c-0.7,0-1.6,0.6-2.6,1.5v-0.2c0-0.8-0.4-1.3-1.3-1.3c-0.8,0-1.7,0.7-2.6,1.5l-0.1-0.1L60.3,73.3z M53,79.9
	c-0.9,0-1.3-0.7-1.3-1.9c0-1.4,0.8-4.5,2.5-4.5c0.9,0,1.3,0.7,1.3,1.9C55.5,76.9,54.7,79.9,53,79.9 M54.3,73.3
	c-2.3,0-3.8,2.1-3.8,4.2c0,1.7,1,2.7,2.4,2.7c2.3,0,3.8-2.2,3.8-4.2C56.7,74.3,55.7,73.3,54.3,73.3 M44.9,80.3
	c2.3,0,3.7-1.6,4.7-2.9l-0.2-0.2c-1.1,1.4-2.3,2.5-3.9,2.5c-1.9,0-3.1-1.3-3.1-3.4c0-2.9,1.9-6.5,4.6-6.5c1.6,0,1.9,0.8,2.5,3.1h0.2
	l0.9-3.3h-0.2l-0.8,0.7c-0.5-0.4-1.5-0.8-2.6-0.8c-3.6,0-6.2,3.3-6.2,6.5C40.9,78.6,42.6,80.3,44.9,80.3 M34,73.3l-2.1,0.2v0.2
	c0.8,0,1,0.1,1.1,0.7l0.5,3.1l0.6,3.2c-0.8,1.3-1.6,1.7-2.1,1.9c0.1-0.1,0.1-0.3,0.1-0.5c0-0.5-0.3-0.8-0.7-0.8
	c-0.4,0-0.8,0.4-0.8,0.8c0,0.5,0.3,0.9,1.1,0.9c0.9,0,1.8-0.5,4.3-4.5c1.9-3,2-3.6,2-4.3c0-0.5-0.3-1-0.8-1c-0.4,0-0.7,0.3-0.7,0.8
	c0,0.4,0.3,0.8,0.8,1c-0.1,0.5-0.3,1.3-1.3,2.9L35,79.4h0L34.4,76L34,73.3z M31.2,75.4c0-1.4-0.7-2.1-1.7-2.1
	c-0.8,0-1.5,0.4-2.3,1.2l0,0l1.4-4.9l-2.8,0.1v0.2c1.1,0.1,1.4,0.3,1.2,0.8l-1.4,5.7l-0.9,3c0.7,0.6,1.4,0.8,2.3,0.8
	C29.4,80.2,31.2,77.4,31.2,75.4 M27.2,79.9c-0.5,0-1-0.2-1.2-0.7l1.1-4.4c0.5-0.5,1.1-0.8,1.6-0.8c0.8,0,1.2,0.6,1.2,1.6
	C30,77.5,28.8,79.9,27.2,79.9"/>
<path class="st0" d="M96.1,55.7h5.5V30h9.8v-5h-25v5h9.8V55.7z M63.5,40.2V29.9h7.9c4,0,6.4,1.8,6.4,5.1c0,3.2-2.5,5.2-6.3,5.2H63.5
	z M58,55.7h5.4V45h6.7l7.7,10.7h6.4l-8.3-11.7c4.3-1.2,7.3-4.3,7.3-9.3c0-5.9-4.2-9.8-11.4-9.8H58V55.7z M29.3,55.7h23v-4.8H34.7
	v-8.3h15.4v-4.8H34.7v-8h17.4V25H29.3V55.7z M12.8,56.2c6.5,0,11-3.4,11-9.2c0-5.2-3.4-7.5-9.9-9.1C8,36.5,6.6,35.4,6.6,33
	c0-2.1,1.8-3.7,5-3.7c2.8,0,5.6,1.1,8.4,3.2l2.9-4.1c-3.1-2.5-6.7-3.9-11.2-3.9c-6.1,0-10.5,3.7-10.5,8.9c0,5.8,3.7,7.7,10.2,9.2
	c5.7,1.4,6.9,2.6,6.9,4.8c0,2.4-2.1,4-5.5,4c-3.8,0-6.8-1.5-9.7-4L0,51.3C3.7,54.6,8.1,56.2,12.8,56.2"/>
<text transform="matrix(1 0 0 1 29 33.2383)"><tspan x="0" y="0" class="st1 st2 st3"> </tspan><tspan x="1.7" y="0" class="st1 st2"> </tspan></text>
</svg>
