<?xml version="1.0" encoding="utf-8"?>
<!-- Generator: Adobe Illustrator 23.0.0, SVG Export Plug-In . SVG Version: 6.00 Build 0)  -->
<svg version="1.1" id="Capa_1" xmlns="http://www.w3.org/2000/svg" xmlns:xlink="http://www.w3.org/1999/xlink" x="0px" y="0px"
	 viewBox="0 0 54 33" style="enable-background:new 0 0 54 33;" xml:space="preserve">
<style type="text/css">
	.st0{fill:#888888;}
	.st1{clip-path:url(#SVGID_2_);fill:#888888;}
</style>
<path class="st0" d="M2.3,2.2h34.3l14.3,14.3L36.6,30.8H2.3V2.2z M0.3,0.2v32.6h37.1l16.3-16.3L37.4,0.2H0.3z"/>
<g>
	<defs>
		<rect id="SVGID_1_" y="0.4" width="53.4" height="32.6"/>
	</defs>
	<clipPath id="SVGID_2_">
		<use xlink:href="#SVGID_1_"  style="overflow:visible;"/>
	</clipPath>
	<path class="st1" d="M6.1,26.9h4l1-2.3h8.2l1,2.3h4.4L15.3,6.5H15L6.1,26.9z M12.5,21.1l1.5-3.5c0.6-1.4,1.2-3.6,1.2-3.6
		s0.6,2.2,1.2,3.6l1.5,3.5H12.5z"/>
</g>
</svg>
