<?xml version="1.0" encoding="utf-8"?>
<svg version="1.1" xmlns="http://www.w3.org/2000/svg" xmlns:xlink="http://www.w3.org/1999/xlink" x="0px" y="0px"
	 viewBox="0 0 190 30" style="enable-background:new 0 0 190 30;" xml:space="preserve">
<path d="M175,24.7h-22V5.3h22v4.4h-16.6v2.9h14.8V17h-14.8l0,3.3H175V24.7z M102.4,24.7V5.3h16.7c4,0,7.2,3.2,7.2,7.2
	c0,4-3.2,7.2-7.2,7.2l-11.9,0v4.8H102.4z M107.2,15h11.9c1.3,0,2.4-1.1,2.4-2.4c0-1.3-1.1-2.4-2.4-2.4h-11.9V15z M95.4,24.7V12.2
	c0-1.3-1.1-2.4-2.4-2.4c-1.3,0-2.4,1.1-2.4,2.4V19c0,3.3-2.7,6-6,6c-3.3,0-6-2.7-6-6v-6.7c0-1.3-1.1-2.4-2.4-2.4
	c-1.3,0-2.4,1.1-2.4,2.4v12.4h-4.8V12.2c0-4,3.2-7.2,7.2-7.2c4,0,7.2,3.2,7.2,7.2V19c0,0.7,0.5,1.2,1.2,1.2s1.2-0.5,1.2-1.2v-6.7
	C85.8,8.2,89,5,93,5c4,0,7.2,3.2,7.2,7.2v12.4H95.4z M44.7,15c0,2.7,2.2,4.8,4.8,4.8h8c2.7,0,4.8-2.2,4.8-4.8c0-2.7-2.2-4.8-4.8-4.8
	h-8C46.9,10.2,44.7,12.3,44.7,15 M39.9,15c0-5.3,4.3-9.7,9.7-9.7h8c5.3,0,9.7,4.3,9.7,9.7c0,5.3-4.3,9.7-9.7,9.7h-8
	C44.2,24.7,39.9,20.3,39.9,15 M127,5.3h24.1v4.4h-9.7v14.9h-4.8V9.7H127V5.3z M40.1,21.9c-1.7,1.7-4.1,2.8-6.8,2.8h-8.6
	c-5.3,0-9.7-4.3-9.7-9.7c0-5.3,4.3-9.7,9.7-9.7h8.6c2.7,0,5.1,1.1,6.8,2.8l-3.4,3.4c-0.9-0.9-2.1-1.4-3.4-1.4h-8.6
	c-2.7,0-4.8,2.2-4.8,4.8c0,2.7,2.2,4.8,4.8,4.8h8.6c1.3,0,2.5-0.5,3.4-1.4L40.1,21.9z"/>
</svg>
