<?xml version="1.0" encoding="utf-8"?>
<!-- Generator: Adobe Illustrator 23.0.0, SVG Export Plug-In . SVG Version: 6.00 Build 0)  -->
<svg version="1.1" id="Capa_1" xmlns="http://www.w3.org/2000/svg" xmlns:xlink="http://www.w3.org/1999/xlink" x="0px" y="0px"
	 viewBox="0 0 34 32" style="enable-background:new 0 0 34 32;" xml:space="preserve">
<style type="text/css">
	.st0{fill:#888888;}
</style>
<path class="st0" d="M16.9,2c-0.1,0-0.2,0-0.2,0.2L12.7,10c-0.3,0.6-1,1.1-1.7,1.2l-8.6,1.3c-0.1,0-0.1,0-0.2,0.1
	c0,0-0.1,0.2,0.1,0.3L8.5,19c0.5,0.5,0.7,1.3,0.6,2l-1.5,8.6c0,0.2,0.1,0.3,0.1,0.3C7.9,30,8,30,8.1,30l7.7-4.1
	c0.7-0.3,1.4-0.3,2.1,0l7.8,4.1c0.1,0.1,0.3,0,0.3-0.1c0.1,0,0.1-0.1,0.1-0.3l-1.5-8.5c-0.2-0.7,0.1-1.5,0.6-2.1l6.2-6.1
	c0.1-0.1,0.1-0.1,0.1-0.3c0,0-0.1-0.2-0.2-0.2l-8.6-1.3c-0.8-0.1-1.5-0.6-1.7-1.3l-3.8-7.8c0,0,0,0,0,0C17,2,16.9,2,16.9,2 M8,32
	c-0.5,0-0.9-0.1-1.3-0.4c-0.7-0.5-1.1-1.4-0.9-2.3l1.5-8.6c0-0.1,0-0.2-0.1-0.3l-6.3-6.1C0.2,13.7,0,12.8,0.3,12
	c0.3-0.8,1-1.4,1.8-1.5l8.6-1.3c0.1,0,0.2-0.1,0.2-0.1l3.9-7.8C15.2,0.5,16,0,16.9,0c0.9,0,1.7,0.5,2,1.3l3.8,7.8
	c0,0.1,0.1,0.1,0.2,0.1l8.6,1.3c0.9,0.1,1.6,0.8,1.9,1.6c0.2,0.8,0,1.7-0.6,2.3l-6.1,6.1c-0.1,0.1-0.1,0.1-0.1,0.2l1.5,8.7
	c0.1,0.8-0.2,1.7-0.9,2.2c-0.7,0.5-1.6,0.6-2.4,0.2L17,27.7c-0.1,0-0.2,0-0.3,0l-7.6,4C8.7,31.9,8.3,32,8,32"/>
</svg>
