<?xml version="1.0" encoding="utf-8"?>
<!-- Generator: Adobe Illustrator 23.1.1, SVG Export Plug-In . SVG Version: 6.00 Build 0)  -->
<svg version="1.1" id="Capa_1" xmlns="http://www.w3.org/2000/svg" xmlns:xlink="http://www.w3.org/1999/xlink" x="0px" y="0px"
	 viewBox="0 0 300 300" style="enable-background:new 0 0 300 300;" xml:space="preserve">
<g>
	<path d="M73.818,119.74v0.468c-5.2-0.39-8.138-4.316-8.138-9.23c0-4.888,2.938-9.074,8.138-9.464v0.442
		c-2.522,0.364-3.692,2.574-3.692,9.022C70.126,117.452,71.296,119.428,73.818,119.74z M84.349,122.314l0.312,0.338l-2.782,2.392
		c-2.002,1.716-4.576,1.014-8.84-0.78l-2.236-0.936c-2.002-0.858-2.938,0.104-3.484,0.52l-0.338-0.338
		c4.68-3.952,9.178-2.002,9.178-2.002l4.446,1.508C82.659,123.718,83.829,122.678,84.349,122.314z M75.431,120.208v-0.468
		c2.522-0.286,3.692-2.262,3.692-8.763c0-6.474-1.17-8.684-3.692-9.022v-0.468c5.226,0.39,8.19,4.576,8.19,9.49
		C83.621,115.918,80.657,119.844,75.431,120.208z"/>
	<path d="M93.111,118.414c-0.936,1.04-2.522,1.82-3.744,1.82c-2.054,0-3.276-0.858-3.276-3.978v-5.564
		c0-1.56,0.052-1.794-1.456-2.002v-0.442l4.68-0.494v8.424c0,1.456,0.676,2.158,2.184,2.158c0.39,0,0.858-0.104,1.3-0.442
		L93.111,118.414z M98.337,119.09v0.442l-3.848,0.676c-0.702,0.104-0.728-0.494-0.728-0.494v-8.944c0-1.586,0.104-1.924-1.222-2.08
		v-0.442l4.472-0.494v9.854C97.011,118.856,97.245,118.96,98.337,119.09z"/>
	<path d="M104.68,119.74v0.468c-3.614-0.234-5.642-2.964-5.642-6.214c0-3.276,2.028-5.98,5.642-6.214v0.468
		c-1.43,0.208-1.82,1.534-1.82,5.746C102.86,118.206,103.25,119.532,104.68,119.74z M105.746,120.208v-0.468
		c1.43-0.208,1.82-1.534,1.82-5.747c0-4.212-0.39-5.538-1.82-5.746v-0.468c3.64,0.234,5.668,2.938,5.668,6.214
		C111.414,117.244,109.386,119.974,105.746,120.208z"/>
	<path d="M120.124,117.478l0.39,0.234c-0.52,1.222-2.106,2.522-3.848,2.522c-2.054,0-3.276-0.832-3.276-3.978v-7.826h-1.3
		l-0.078-0.442h1.378v-3.484l3.25-0.546v4.03h3.094l-0.104,0.442h-2.99v7.748c0,1.456,0.624,2.21,1.924,2.21
		C119.318,118.388,119.89,117.868,120.124,117.478z"/>
	<path d="M133.41,118.206l0.442,0.182c-0.208,0.832-1.404,1.846-3.042,1.846c0,0-2.626,0-2.626-2.34v-4.083
		c-2.548,0.572-3.406,1.794-3.406,3.12c0,0,0,1.716,1.69,1.716c0.286,0,0.546-0.026,0.754-0.13l0.312,0.442
		c-0.702,0.65-1.82,1.274-3.094,1.274c0,0-2.99,0-2.99-2.652c0-2.834,2.184-3.094,6.734-4.238v-1.612
		c0-2.444-1.248-3.77-2.808-3.302l-0.182-0.39c0.988-0.338,1.924-0.286,1.924-0.286c3.406,0,4.342,2.132,4.342,5.2v3.875
		c0,0-0.026,1.82,1.248,1.82C132.708,118.648,133.254,118.648,133.41,118.206z M122.646,111.731
		c-0.312-0.494-0.338-1.118-0.078-1.56c0.234-0.39,0.546-0.988,1.664-1.664l0.182,0.416c-0.39,0.312-0.416,0.572-0.286,0.572
		c0.39,0.052,0.728,0.234,0.962,0.572c0.468,0.676,0.286,1.586-0.39,2.054C124.024,112.563,123.114,112.408,122.646,111.731z"/>
	<path d="M145.733,119.532V120h-5.356v-0.468c0.988-0.286,1.04-1.404,1.04-2.73v-13.104c0-0.91-0.26-1.17-1.3-1.56v-0.442
		l4.55-1.092v16.198C144.667,118.232,144.797,119.298,145.733,119.532z M153.3,119.558V120h-5.33v-0.442
		c0.987-0.286,1.04-1.43,1.04-2.756v-4.914c0-1.482-0.676-2.184-2.185-2.184c-0.416,0-0.884,0.182-1.3,0.52l-0.338-0.546
		c0.884-1.04,2.496-1.924,3.77-1.924c2.08,0,3.276,0.91,3.276,4.03v5.018C152.233,118.232,152.39,119.324,153.3,119.558z"/>
	<path d="M159.643,119.558V120h-5.33v-0.442c0.988-0.312,1.04-1.404,1.04-2.73v-5.772c0-0.884-0.26-1.248-1.325-1.82v-0.442
		l4.55-1.04v9.075C158.577,118.284,158.707,119.298,159.643,119.558z M156.705,105.673c-0.988,0-1.769-0.78-1.769-1.768
		c0-0.988,0.78-1.768,1.769-1.768s1.794,0.78,1.794,1.768C158.499,104.894,157.693,105.673,156.705,105.673z"/>
	<path d="M174.307,114.098c0,4.004-2.521,5.954-5.928,6.136v-0.468c1.534-0.286,2.21-1.872,2.21-5.434
		c0-4.187-0.988-5.616-3.094-5.616c-1.561,0-2.496,1.248-2.679,2.808v4.758c0.183,2.314,1.326,3.25,2.496,3.484v0.442
		c-0.962-0.078-1.846-0.338-2.496-0.78v4.499c0,1.456,0.156,2.288,1.066,2.522v0.442h-5.33v-0.442
		c0.988-0.286,1.04-1.196,1.04-2.522v-13.235c0-0.884-0.26-1.066-1.3-1.456v-0.442l4.523-1.04v2.106
		c0.832-1.534,2.73-2.106,3.952-2.106C171.707,107.753,174.307,110.016,174.307,114.098z"/>
	<path d="M181.431,119.74v0.468c-3.614-0.234-5.642-2.964-5.642-6.214c0-3.276,2.027-5.98,5.642-6.214v0.468
		c-1.43,0.208-1.819,1.534-1.819,5.746C179.611,118.206,180.001,119.532,181.431,119.74z M182.497,120.208v-0.468
		c1.43-0.208,1.82-1.534,1.82-5.747c0-4.212-0.391-5.538-1.82-5.746v-0.468c3.64,0.234,5.668,2.938,5.668,6.214
		C188.165,117.244,186.137,119.974,182.497,120.208z"/>
	<path d="M196.876,117.478l0.39,0.234c-0.52,1.222-2.106,2.522-3.848,2.522c-2.055,0-3.276-0.832-3.276-3.978v-7.826h-1.3
		l-0.078-0.442h1.378v-3.484l3.25-0.546v4.03h3.094l-0.104,0.442h-2.99v7.748c0,1.456,0.624,2.21,1.924,2.21
		C196.069,118.388,196.642,117.868,196.876,117.478z"/>
	<path d="M208.445,116.594l0.441,0.234c-0.416,1.352-1.95,3.406-5.434,3.406c-3.406,0-5.746-3.146-5.746-6.188
		c0-3.432,2.21-5.98,5.46-6.24v0.416c-1.274,0.494-2.106,2.886-2.106,5.096h5.097c0-2.782-0.78-4.654-1.925-5.096v-0.442
		c3.459,0.156,5.097,2.106,5.097,5.98h-8.269c0.208,2.548,1.508,3.874,3.25,4.264C205.715,118.336,207.795,117.816,208.445,116.594z
		"/>
	<path d="M221.627,116.88c-0.364,1.326-1.924,3.354-5.174,3.354c-3.406,0-5.721-3.25-5.721-6.292c0-2.86,2.106-5.902,6.188-6.163
		v0.494c-1.118,0.26-2.912,1.43-2.912,5.2c0,2.808,1.508,4.056,3.302,4.446c1.301,0.286,3.354-0.416,3.952-1.274L221.627,116.88z
		 M218.013,108.248v-0.468c1.508,0.13,2.444,0.78,2.86,1.118c0.441,0.39,0.702,1.118,0.52,1.742c-0.26,0.91-1.195,1.508-2.132,1.248
		c-0.936-0.234-1.481-1.196-1.222-2.106c0.104-0.494,0.416-0.832,0.806-1.04C219.027,108.664,218.688,108.377,218.013,108.248z"/>
	<path d="M234.887,118.206l0.442,0.182c-0.208,0.832-1.404,1.846-3.042,1.846c0,0-2.627,0-2.627-2.34v-4.083
		c-2.548,0.572-3.405,1.794-3.405,3.12c0,0,0,1.716,1.689,1.716c0.286,0,0.546-0.026,0.754-0.13l0.312,0.442
		c-0.702,0.65-1.82,1.274-3.095,1.274c0,0-2.989,0-2.989-2.652c0-2.834,2.184-3.094,6.733-4.238v-1.612
		c0-2.444-1.248-3.77-2.808-3.302l-0.182-0.39c0.987-0.338,1.924-0.286,1.924-0.286c3.406,0,4.342,2.132,4.342,5.2v3.875
		c0,0-0.025,1.82,1.248,1.82C234.185,118.648,234.73,118.648,234.887,118.206z M224.122,111.731
		c-0.312-0.494-0.338-1.118-0.077-1.56c0.233-0.39,0.546-0.988,1.664-1.664l0.182,0.416c-0.391,0.312-0.416,0.572-0.286,0.572
		c0.39,0.052,0.728,0.234,0.962,0.572c0.468,0.676,0.286,1.586-0.39,2.054C225.5,112.563,224.591,112.408,224.122,111.731z"/>
</g>
<g>
	<path d="M71.165,139.411v20.156h0.84c0.56,0,0.72-0.04,1.04-0.56l4.119-7.079h0.08l-0.76,8.438h-5.319v3.56
		c0,0.44,0.08,0.561,0.44,0.92l2.839,2.6v0.08H61.246v-0.08l2.88-2.56c0.4-0.32,0.479-0.52,0.479-0.96v-3.56H53.888v-0.04
		l11.518-20.916H71.165z M64.605,159.567V142.73l-9.398,16.837H64.605z"/>
	<path d="M78.327,161.167c0-3.199,2.6-5.198,6.719-5.919l-0.24-0.159c-3.319-2.24-5.759-4.359-5.759-8.119
		c0-4.879,4.119-7.958,9.638-7.958c4.799,0,9.318,2.359,9.318,6.479c0,3.119-2.479,4.879-5.999,5.479l1.56,0.84
		c3.759,2.04,6.039,4.16,6.039,7.959c0,4.359-3.8,8.159-10.758,8.159C82.606,167.927,78.327,165.087,78.327,161.167z
		 M85.366,155.408c-1.48,1.16-2.16,3.04-2.16,5.6c0,3.319,2.56,6.118,6.039,6.118c2.759,0,4.799-1.56,4.799-4.318
		c0-2.12-1.4-3.36-4.16-4.88L85.366,155.408z M88.846,149.25l2.799,1.56c1.16-1.2,1.68-2.68,1.68-4.879
		c0-3.52-1.799-6.159-4.799-6.159c-2.44,0-4.24,1.52-4.24,3.959C84.286,146.09,85.846,147.57,88.846,149.25z"/>
	<path d="M125.123,153.488c0,9.919-4.559,14.438-11.998,14.438c-7.399,0-11.998-4.52-11.998-14.478
		c0-9.959,4.599-14.438,11.998-14.438C120.563,139.011,125.123,143.53,125.123,153.488z M117.844,153.449
		c0-10.439-1.8-13.678-4.719-13.678s-4.679,3.279-4.679,13.678c0,10.438,1.76,13.717,4.679,13.717S117.844,163.847,117.844,153.449z
		"/>
	<path d="M137.805,156.168c0.36,6.879,2.16,10.998,6.119,10.998h0.52c0.68,0,0.92-0.119,1.24-0.56l6.119-9.438h0.08v10.038
		c-2.8,0.521-5.76,0.721-8.479,0.721c-8.598,0-12.917-4.56-13.757-11.759h-2.919v-0.76h2.879c-0.04-0.6-0.08-1.239-0.08-1.88
		c0-0.64,0-1.279,0.08-1.919h-2.879v-0.76h2.959c0.88-7.239,5.559-11.838,13.518-11.838c2.879,0,5.799,0.24,8.679,0.76v9.838h-0.08
		l-6.079-9.238c-0.36-0.48-0.64-0.6-1.44-0.6h-0.52c-3.919,0-5.599,4.399-5.959,11.079h7.639v0.76h-7.679v3.799h7.679v0.76H137.805z
		"/>
	<path d="M153.646,173.686l-0.76-0.24l11.878-35.434l0.76,0.24L153.646,173.686z"/>
	<path d="M199.04,164.646c0,0.521,0.04,0.641,0.4,0.96l1.96,1.84v0.08h-11.198v-0.08l1.88-1.84c0.319-0.319,0.399-0.479,0.399-0.92
		c0-0.64,0.12-5.999,0.12-7.918c0-3.6-0.56-6.039-3.079-6.039c-1.28,0-2.36,0.68-3.16,1.72c0.24,1,0.36,2.119,0.36,3.399
		c0,2.479-0.08,5.639-0.12,8.798c0,0.521,0.04,0.641,0.36,0.96l1.999,1.84v0.08h-11.238v-0.08l1.92-1.84
		c0.32-0.319,0.36-0.479,0.36-0.92c0-0.6,0.12-5.999,0.12-7.918c0-3.64-0.561-6.039-3.04-6.039c-1.279,0-2.239,0.72-2.959,1.76
		v12.157c0,0.521,0,0.641,0.359,0.96l1.96,1.84v0.08h-11.198v-0.08l1.96-1.84c0.359-0.319,0.359-0.439,0.359-0.96V150.81
		c0-0.521-0.04-0.641-0.359-1l-1.96-2v-0.08h8.879v4.239c0.999-2.799,3.119-4.559,6.358-4.559c2.96,0,4.959,1.64,5.799,4.719
		c0.92-2.64,3.32-4.719,6.68-4.719c3.959,0,6.198,2.919,6.198,8.439C199.16,158.488,199.08,161.487,199.04,164.646z"/>
	<path d="M208.045,156.729v0.08c0,5.198,2.64,7.318,5.719,7.318c2.4,0,4.76-1.04,6.079-3.68h0.08
		c-1.04,5.039-4.159,7.399-8.838,7.399c-5.04,0-9.799-3.04-9.799-10.079c0-7.398,4.719-10.358,10.038-10.358
		c4.239,0,8.759,2,8.759,8.439c0,0.12,0,0.399-0.04,0.88H208.045z M208.045,156.008h5.879c0.04-0.52,0.04-1.039,0.04-1.199
		c0-5.239-1.08-6.639-2.72-6.639C209.245,148.169,208.125,150.209,208.045,156.008z"/>
	<path d="M228.204,160.688l-2.72-1.279c-2.2-1.04-3.88-2.84-3.88-5.68c0-3.799,3.12-6.319,8.199-6.319
		c1.959,0,4.438,0.28,7.038,1.08l-2.239,5.799h-0.08l-3.119-5.56c-0.24-0.4-0.36-0.6-0.92-0.6h-0.56c-1.76,0-3.24,0.92-3.24,2.799
		c0,1.76,1.32,2.6,3.68,3.64l2.56,1.12c2.479,1.08,4.439,2.439,4.439,5.519c0,4.319-3.64,6.64-8.959,6.64
		c-2.279,0-5.079-0.44-7.358-1.24l2.199-6.199h0.08l3.199,6.199c0.16,0.32,0.4,0.52,0.841,0.52h0.919c2.32,0,3.76-1.199,3.76-2.919
		C232.043,162.567,230.803,161.888,228.204,160.688z"/>
</g>
<g>
	<path d="M241.375,141.896l3.521,2.378l-2.448,1.772l-1.166-4.057l-1.166,4.034l-2.448-1.772l3.521-2.355l-4.173,0.163l0.933-2.891
		l3.264,2.611l-1.375-3.963h3.03l-1.516,3.963l3.357-2.588l0.956,2.891L241.375,141.896z"/>
</g>
</svg>
