<?xml version="1.0" encoding="utf-8"?>
<!-- Generator: Adobe Illustrator 23.1.1, SVG Export Plug-In . SVG Version: 6.00 Build 0)  -->
<svg version="1.1" id="Capa_1" xmlns="http://www.w3.org/2000/svg" xmlns:xlink="http://www.w3.org/1999/xlink" x="0px" y="0px"
	 viewBox="0 0 226.1 151" style="enable-background:new 0 0 226.1 151;" xml:space="preserve">
<style type="text/css">
	.st0{fill:#FFFFFF;}
</style>
<g>
	<path class="st0" d="M222.7,104V65.2L209,67.7v0.5c2.5,0.9,3.3,1.8,3.3,3.9V104c0,3.2-0.1,5.8-2.4,6.4v0.5h15.3v-0.5
		C223,109.8,222.7,107.4,222.7,104 M210.3,106.7c-0.3,1-1.8,1-1.8,1c-2.9,0.1-2.9-4.3-2.9-4.3v-9.1c0-7.2-4.5-12.3-12.5-12.3
		c0,0-2-0.1-4.3,0.7l0.3,0.6c3.6-0.7,6.3,2.6,6.3,8.2v3.9c-10.9,2.6-15.9,3.7-15.9,9.9c0,5.2,5.3,6.3,7.7,6.3c3.6,0,6.3-1.6,7.6-3.9
		l-0.4-0.3c-0.4,0.4-1.1,0.5-1.6,0.5c-2.5,0-2.4-4.1-2.4-4.1c0-2.9-0.1-6.6,5-7.7v9.5c0,6.1,7.4,6.1,7.4,6.1c3.9,0,7.1-1.8,7.9-4.5
		L210.3,106.7z M183.1,86.5c-1,1.1-1.4,2.9-0.7,4.5c0.9,2.2,3.4,3.3,5.6,2.4c2.3-1,3.3-3.4,2.4-5.7c-0.5-1.1-1.2-2-2.2-2.3
		c-2-0.7-0.9-1.4-0.8-1.5l-0.2-0.4C184.9,84.6,183.8,85.7,183.1,86.5 M176.5,105.4V65.2L163,67.7v0.5c2.5,0.9,3.1,1.8,3.1,3.9v12.6
		c-0.9-1.2-2.5-2.3-5.3-2.6v0.6c2.9,0.3,5.3,3.3,5.3,8.7v12.3c-0.6,1.8-2.8,4-5.1,4c-4.5,0-6.1-4.4-6.1-12.1c0-9,1.7-12.2,4.1-12.9
		v-0.6c-7.7,0-16.6,2.5-16.6,14.9c0,9.6,4.9,14.5,13.4,14.5c4.4,0,9.2-2.3,10.2-6.6v5.5c0,0,0,1.4,1.7,1.1l11.8-1.5v-0.5
		C177.1,109.1,176.5,108.4,176.5,105.4 M142.9,106.7c-0.3,1-1.8,1-1.8,1c-2.9,0.1-2.9-4.3-2.9-4.3v-9.1c0-7.2-4.5-12.3-12.5-12.3
		c0,0-2-0.1-4.3,0.7l0.3,0.6c3.6-0.7,6.3,2.6,6.3,8.2v3.9c-10.9,2.6-15.9,3.7-15.9,9.9c0,5.2,5.3,6.3,7.7,6.3c3.6,0,6.3-1.6,7.6-3.9
		l-0.4-0.3c-0.4,0.4-1.1,0.5-1.6,0.5c-2.5,0-2.4-4.1-2.4-4.1c0-2.9-0.1-6.6,5-7.7v9.5c0,6.1,7.4,6.1,7.4,6.1c3.9,0,7.1-1.8,7.9-4.5
		L142.9,106.7z M115.7,86.5c-1,1.1-1.4,2.9-0.7,4.5c0.9,2.2,3.4,3.3,5.6,2.4c2.3-1,3.3-3.4,2.4-5.7c-0.5-1.1-1.2-2-2.2-2.3
		c-2-0.7-0.9-1.4-0.8-1.5l-0.2-0.4C117.4,84.6,116.3,85.7,115.7,86.5 M98,67.7v0.5c6.8,0,8.8,7.5,8.8,13.3h0.6
		c0-5.7,1.7-13.3,9.3-13.3v-0.5H98z M107.3,98.7L85.9,67.7H66.4v0.5c1.6,0.1,4,0.1,7.7,4.9l26.6,37.8h6.8L107.3,98.7z M77.5,97.1
		h-0.6c0,4.8-1.2,13.3-9.7,13.3v0.6h19.5v-0.6C77.8,110.4,77.5,102,77.5,97.1 M50.5,104V65.2l-13.7,2.6v0.5c2.5,0.9,3.3,1.8,3.3,3.9
		V104c0,3.2-0.1,5.8-2.4,6.4v0.5H53v-0.5C50.8,109.8,50.5,107.4,50.5,104 M20.6,89.4c0.1,0,6.6-0.1,7.2,7.2h0.6v-15h-0.6
		c-0.7,7.4-7.2,7.2-7.2,7.2h-2.5v0.6H20.6z M35.9,98.9h-0.6c0,11.2-14.9,11.5-17.2,11.5v0.6h17.8V98.9z M34.6,80.3h0.6V67.7h-17v0.6
		C20.4,68.4,34.6,69.3,34.6,80.3 M15.6,67.7H0.1v0.5c2.7,0,3.6,4.2,3.6,8v26.3c0,4.2-1,7.9-3.6,7.9v0.6h15.5V67.7z"/>
	<path class="st0" d="M194.6,42.7c-0.6,1.2-1.4,1.9-2.6,1.9c-1.7,0-2.6-1.5-2.6-3.4c0-2,0.8-3.4,2.6-3.4c1.2,0,2.1,0.7,2.6,1.9
		l2.5-1c-0.8-2.1-2.6-3.2-5.1-3.2c-3.7,0-5.5,2.6-5.5,5.8c0,3.2,1.8,5.8,5.5,5.8c2.5,0,4.3-1.1,5.1-3.2L194.6,42.7z M181.9,46.8h2.8
		V35.5h-2.8V46.8z M181.5,32.3c0,1,0.8,1.8,1.8,1.8c1,0,1.8-0.8,1.8-1.8c0-1-0.8-1.8-1.8-1.8C182.2,30.5,181.5,31.3,181.5,32.3
		 M175.3,46.8l5.2-15.6h-3.2l-3.5,11.6l-3.5-11.6h-3.2l5.2,15.6H175.3z M155,43.5c0-1,0.7-1.5,1.9-1.5h1.9v0.2
		c0,1.5-1.3,2.3-2.6,2.3C155.4,44.6,155,44,155,43.5 M154.8,39c0.4-1,1.2-1.3,1.9-1.3c1,0,2,0.4,2,1.7v0.5h-1.9
		c-2.8,0-4.8,1.5-4.8,3.7c0,2.2,1.5,3.4,3.4,3.4c1.6,0,2.7-0.6,3.5-1.6l0.3,1.4h2.3v-6.7c0-3.6-2.1-4.7-4.7-4.7
		c-2.3,0-3.9,1.3-4.3,3.1L154.8,39z M138.2,34.3h2.1l3.1-3.3h-3.8L138.2,34.3z M137.3,41.1c0-1.9,1-3.4,2.8-3.4
		c1.8,0,2.8,1.6,2.8,3.4c0,1.9-1,3.4-2.8,3.4C138.4,44.6,137.3,43,137.3,41.1 M134.4,41.1c0,3.3,2.1,5.8,5.7,5.8
		c3.6,0,5.7-2.5,5.7-5.8c0-3.3-2.1-5.8-5.7-5.8C136.5,35.3,134.4,37.9,134.4,41.1 M129.9,46.8h2.8V35.5h-2.8V46.8z M129.5,32.3
		c0,1,0.8,1.8,1.8,1.8c1,0,1.8-0.8,1.8-1.8c0-1-0.8-1.8-1.8-1.8C130.2,30.5,129.5,31.3,129.5,32.3 M125.8,42.7
		c-0.6,1.2-1.4,1.9-2.6,1.9c-1.7,0-2.6-1.5-2.6-3.4c0-2,0.8-3.4,2.6-3.4c1.2,0,2.1,0.7,2.6,1.9l2.5-1c-0.8-2.1-2.6-3.2-5.1-3.2
		c-3.7,0-5.5,2.6-5.5,5.8c0,3.2,1.8,5.8,5.5,5.8c2.5,0,4.3-1.1,5.1-3.2L125.8,42.7z M107.8,41.1c0-1.9,1-3.4,2.8-3.4
		c1.8,0,2.8,1.6,2.8,3.4c0,1.9-1,3.4-2.8,3.4C108.9,44.6,107.8,43,107.8,41.1 M104.9,41.1c0,3.3,2.1,5.8,5.7,5.8
		c3.6,0,5.7-2.5,5.7-5.8c0-3.3-2.1-5.8-5.7-5.8C107,35.3,104.9,37.9,104.9,41.1 M96.5,46.8v-4.4c0-3.2,1.1-4.7,2.4-4.7
		c0.8,0,1.4,0.4,1.4,1.6v7.5h2.8v-8c0-2.2-1.2-3.5-3.3-3.5c-1.4,0-2.6,0.9-3.4,2.3c-0.5-1.6-1.8-2.3-3.1-2.3c-1.5,0-2.4,0.7-3.2,2
		v-1.8h-2.8v11.2h2.8v-4.1c0-3.3,1.1-4.9,2.4-4.9c0.8,0,1.4,0.4,1.4,1.6v7.5H96.5z M76.6,41.1c0-1.9,1-3.4,2.8-3.4
		c1.8,0,2.8,1.6,2.8,3.4c0,1.9-1,3.4-2.8,3.4C77.6,44.6,76.6,43,76.6,41.1 M73.7,41.1c0,3.3,2.1,5.8,5.7,5.8s5.7-2.5,5.7-5.8
		c0-3.3-2.1-5.8-5.7-5.8S73.7,37.9,73.7,41.1 M68.6,46.8v-4c0-3.6,1.4-5,3-5c0.5,0,0.8,0.1,1.2,0.3l0.5-2.6
		c-0.4-0.1-0.9-0.2-1.4-0.2c-1.3,0-2.5,0.7-3.3,2v-1.8h-2.8v11.2H68.6z M60.9,41.1c0,2.2-1.2,3.4-2.6,3.4c-1.5,0-2.6-1.2-2.6-3.4
		c0-2.2,1.1-3.4,2.6-3.4C59.7,37.7,60.9,38.9,60.9,41.1 M63.8,41.1c0-3.5-1.7-5.8-5.1-5.8c-1.4,0-2.4,0.8-2.7,1.3v-1.2h-2.8v15.8
		h2.8v-5.6c0.5,0.6,1.6,1.2,2.7,1.2C62,47,63.8,44.6,63.8,41.1 M39.2,43.5c0-1,0.7-1.5,1.9-1.5H43v0.2c0,1.5-1.3,2.3-2.6,2.3
		C39.6,44.6,39.2,44,39.2,43.5 M39.1,39c0.4-1,1.2-1.3,1.9-1.3c1,0,2,0.4,2,1.7v0.5h-1.9c-2.8,0-4.8,1.5-4.8,3.7
		c0,2.2,1.5,3.4,3.4,3.4c1.6,0,2.7-0.6,3.5-1.6l0.3,1.4h2.3v-6.7c0-3.6-2.1-4.7-4.7-4.7c-2.3,0-3.9,1.3-4.3,3.1L39.1,39z M26,35.5
		l3.8,11.2h2.5l3.8-11.2h-2.8l-2.3,7.8l-2.3-7.8H26z M17.3,41.1c0-1.9,1-3.4,2.8-3.4c1.8,0,2.8,1.6,2.8,3.4c0,1.9-1,3.4-2.8,3.4
		C18.3,44.6,17.3,43,17.3,41.1 M14.4,41.1c0,3.3,2.1,5.8,5.7,5.8c3.6,0,5.7-2.5,5.7-5.8c0-3.3-2.1-5.8-5.7-5.8
		C16.5,35.3,14.4,37.9,14.4,41.1 M9.2,31.1v10.3L3.5,31.1H0.4v15.6h2.9V36.5l5.7,10.3h3.1V31.1H9.2z"/>
	<g>
		<rect x="0" y="0" class="st0" width="226.1" height="0.5"/>
	</g>
	<g>
		<rect x="0" y="150.5" class="st0" width="226.1" height="0.5"/>
	</g>
</g>
</svg>
