<?xml version="1.0" standalone="no"?>
<!DOCTYPE svg PUBLIC "-//W3C//DTD SVG 1.1//EN" "http://www.w3.org/Graphics/SVG/1.1/DTD/svg11.dtd" >
<svg xmlns="http://www.w3.org/2000/svg">
<metadata></metadata>
<defs>
<font id="hntRegular" horiz-adv-x="1138" >
<font-face units-per-em="2048" ascent="1462" descent="-586" />
<missing-glyph horiz-adv-x="569" />
<glyph horiz-adv-x="0" />
<glyph horiz-adv-x="2048" />
<glyph unicode=" "  horiz-adv-x="569" />
<glyph unicode="&#x09;" horiz-adv-x="569" />
<glyph unicode="&#xa0;" horiz-adv-x="569" />
<glyph unicode="!" horiz-adv-x="530" d="M213 0v211h104v-211h-104zM217 969v493h98v-493l-24 -594h-49z" />
<glyph unicode="&#x22;" horiz-adv-x="645" d="M164 993v469h78v-469h-78zM403 993v469h78v-469h-78z" />
<glyph unicode="#" d="M61 473v68h250l49 354h-241v68h252l63 450h68l-64 -450h346l64 450h67l-63 -450h225v-68h-235l-49 -354h227v-68h-238l-65 -473h-68l66 473h-346l-66 -473h-67l65 473h-240zM379 541h346l49 354h-346z" />
<glyph unicode="$" d="M25 481h77q0 -196 108.5 -311t317.5 -127v682l-96 23q-61 14 -105.5 29t-96 43t-84 64t-54.5 93.5t-22 130.5q0 25 2.5 49.5t13 64t28.5 73.5t52.5 71t81.5 64t119 45.5t161 21.5v100h66v-100q220 -5 344 -114.5t131 -335.5h-78q-12 194 -112 281.5t-285 92.5v-635 l160 -38q191 -47 270.5 -141.5t79.5 -231.5q0 -87 -29 -157.5t-77 -116t-115 -76.5t-138.5 -45t-150.5 -15v-180h-66v180q-117 10 -206.5 43t-157.5 92.5t-103.5 155.5t-35.5 225zM147 1108q0 -56 15.5 -100t40.5 -73t65.5 -51.5t80.5 -35.5t95 -25l84 -18v614 q-197 -7 -289 -91t-92 -220zM594 43q90 0 166 19t136.5 58t95 104t34.5 151q0 117 -74 191t-233 114l-125 31v-668z" />
<glyph unicode="%" horiz-adv-x="1593" d="M82 1071q0 157 93 262t249 105q157 0 247.5 -103t90.5 -264q0 -151 -94.5 -256.5t-245.5 -105.5q-152 0 -246 104.5t-94 257.5zM160 1071q0 -118 72.5 -206.5t187.5 -88.5q118 0 191 88t73 207q0 127 -69 213t-193 86q-122 0 -192 -87t-70 -212zM283 -49l952 1511h82 l-952 -1511h-82zM831 338q0 157 93.5 262t249.5 105q157 0 247 -103t90 -264q0 -151 -94.5 -257t-245.5 -106q-152 0 -246 105t-94 258zM909 338q0 -118 72.5 -206.5t187.5 -88.5q118 0 191.5 88.5t73.5 206.5q0 127 -69.5 213t-193.5 86q-122 0 -192 -87t-70 -212z" />
<glyph unicode="&#x26;" horiz-adv-x="1214" d="M88 348q0 64 23 122.5t49 96.5t83.5 85t87.5 67t100 64q25 16 38 24q-6 8 -44.5 55t-49 61.5t-38 56t-37.5 67t-20 64t-10 75.5q0 109 94 180.5t214 71.5q127 0 217 -67.5t90 -184.5q0 -38 -8 -73.5t-18.5 -62t-32.5 -56t-38 -47.5t-48 -44.5t-49.5 -39t-55.5 -39.5 t-53 -38l348 -428q49 128 49 244h78q-9 -160 -74 -309l238 -293h-105l-178 217q-68 -114 -176.5 -178t-239.5 -64q-191 0 -312.5 97t-121.5 276zM166 348q0 -93 52.5 -164t132.5 -106t171 -35q69 0 132 23.5t104 57t71.5 68.5t44.5 59.5t13 29.5l-377 469q-15 -10 -51 -32.5 t-54.5 -34.5t-51 -34.5t-50.5 -39t-43 -40.5t-39 -47t-28.5 -50.5t-20.5 -58.5t-6 -65zM348 1186q0 -63 28.5 -120t88 -130t72.5 -92q37 25 53 35.5t51.5 36.5t53 43t43 46t38 54t22 58.5t9.5 68.5q0 80 -70 132t-159 52t-159.5 -52t-70.5 -132z" />
<glyph unicode="'" horiz-adv-x="417" d="M170 993v469h78v-469h-78z" />
<glyph unicode="(" horiz-adv-x="493" d="M133 545q0 245 70 490t198 462h72q-262 -445 -262 -952q0 -502 256 -922h-70q-126 207 -195 444.5t-69 477.5z" />
<glyph unicode=")" horiz-adv-x="493" d="M20 -377q263 447 263 952q0 502 -256 922h69q126 -207 195 -444.5t69 -477.5q0 -245 -70 -490t-198 -462h-72z" />
<glyph unicode="*" horiz-adv-x="720" d="M59 1223l19 57l252 -84v266h59v-266l250 84l20 -57l-251 -84l155 -209l-45 -41l-158 217l-163 -217l-50 41l166 209z" />
<glyph unicode="+" horiz-adv-x="1228" d="M98 477v78h477v477h78v-477h477v-78h-477v-477h-78v477h-477z" />
<glyph unicode="," horiz-adv-x="569" d="M205 -190q39 18 54 74.5t15 115.5h-43v211h105v-211q0 -92 -30.5 -162t-100.5 -96v68z" />
<glyph unicode="-" horiz-adv-x="720" d="M141 518v78h439v-78h-439z" />
<glyph unicode="." horiz-adv-x="569" d="M231 0v211h105v-211h-105z" />
<glyph unicode="/" horiz-adv-x="681" d="M-27 -35l652 1532h84l-652 -1532h-84z" />
<glyph unicode="0" d="M57 707q0 76 7 147.5t23.5 146t42.5 137.5t66.5 119t92.5 95.5t123.5 62.5t156.5 23t156.5 -23t123.5 -62.5t92.5 -95.5t66.5 -119t42.5 -137.5t23.5 -146t7 -147.5q0 -90 -10 -173t-32 -167.5t-61.5 -153.5t-94 -123.5t-135 -84.5t-179.5 -30t-179.5 30t-135 84.5 t-94 123.5t-61.5 153.5t-32 167.5t-10 173zM135 707q0 -93 10.5 -179t40.5 -177t77 -157t125.5 -108.5t180.5 -42.5q85 0 154.5 29t116 80.5t79.5 115t51 141t26 149.5t8 149q0 93 -11 179t-41 176.5t-76.5 156.5t-125.5 108.5t-181 42.5t-180.5 -42.5t-125.5 -108 t-77 -156.5t-40.5 -177t-10.5 -179z" />
<glyph unicode="1" d="M221 1081v68q123 19 223.5 87.5t163.5 176.5h70v-1413h-78v1262q-73 -78 -172 -124t-207 -57z" />
<glyph unicode="2" d="M94 0q3 55 19 106.5t37 93t56.5 84t66.5 73t80 68.5t83.5 62t89.5 60l1 1h1l1 1l1 1h1l1 1l1 1h1l1 1l1 1h1l1 1l1 1l2 1q169 113 238 177q155 149 157 319q0 140 -102.5 228.5t-245.5 88.5q-186 0 -283.5 -121t-97.5 -313h-78q24 502 446 502q123 0 220.5 -41.5 t158 -130.5t60.5 -215q0 -72 -23 -139t-57.5 -118.5t-90.5 -105t-106.5 -92t-120.5 -84.5q-182 -121 -237 -164q-161 -128 -183 -246q-2 -12 -3 -24h843v-78h-942z" />
<glyph unicode="3" d="M74 467h78q-7 -196 104 -310t307 -114q107 0 198 39t149.5 120t58.5 189q0 78 -27.5 138.5t-72.5 97.5t-107.5 59.5t-128.5 29t-139 1.5v67q84 -3 157.5 9t140 43.5t105.5 94t39 150.5q0 58 -22.5 106.5t-59.5 81.5t-85.5 56.5t-100.5 34t-105 10.5q-179 0 -274 -110 t-103 -293h-77q2 212 124 341.5t330 129.5q88 0 166.5 -21t143.5 -62.5t103 -112t38 -161.5q0 -126 -76.5 -216t-200.5 -107v-4q143 -17 226.5 -117.5t83.5 -245.5q0 -102 -38.5 -182.5t-105.5 -130.5t-153.5 -76.5t-186.5 -26.5q-236 0 -367.5 129.5t-121.5 362.5z" />
<glyph unicode="4" d="M59 360v78l689 975h77v-985h238v-68h-238v-360h-77v360h-689zM137 428h611v879h-5z" />
<glyph unicode="5" d="M76 432h78q-3 -173 114.5 -281t292.5 -108q176 0 289 123.5t113 300.5q0 173 -115 293.5t-287 120.5q-118 0 -205.5 -49.5t-156.5 -149.5h-80l147 731h715v-67h-653l-121 -564l4 -4q61 83 151.5 126.5t198.5 43.5q211 0 345 -135t134 -346q0 -212 -134 -352t-345 -140 q-102 0 -192.5 32t-158 89.5t-104.5 144.5t-30 191z" />
<glyph unicode="6" d="M86 637q0 80 5.5 154t21.5 156.5t40.5 151.5t65 133t93.5 108.5t128 71t166 26.5q179 0 295.5 -98.5t136.5 -274.5h-77q-23 137 -119.5 221t-235.5 84q-81 0 -147 -26.5t-111 -70t-79 -105.5t-53.5 -126t-31.5 -140t-16 -138t-4 -129l4 -4q45 136 162.5 219.5t259.5 83.5 q208 0 340.5 -137t132.5 -346q0 -204 -134.5 -340t-338.5 -136q-115 0 -204 36.5t-144.5 97t-91.5 147.5t-50 179.5t-14 201.5zM190 451q0 -173 116.5 -290.5t283.5 -117.5q168 0 281.5 119.5t113.5 288.5q0 110 -50.5 205t-141.5 152.5t-203 57.5q-173 0 -286.5 -120.5 t-113.5 -294.5z" />
<glyph unicode="7" d="M115 1346v67h911v-78q-71 -78 -121 -137t-112 -143t-106 -159.5t-91 -176.5t-79 -205.5t-58.5 -236t-40.5 -277.5h-90q10 133 29.5 245.5t63 251t108.5 267.5t171.5 279.5t247.5 302.5h-833z" />
<glyph unicode="8" d="M80 406q0 151 84 249t229 115v4q-127 24 -193.5 106t-66.5 203q0 77 24.5 138.5t65.5 101.5t98 66.5t118.5 37.5t129.5 11t129.5 -11t118.5 -37.5t98.5 -66.5t66 -101.5t24.5 -138.5q0 -121 -67 -203t-194 -106v-4q145 -17 229.5 -115t84.5 -249q0 -107 -38.5 -190.5 t-105.5 -135.5t-155 -78.5t-191 -26.5q-139 0 -247 45.5t-175 144.5t-67 241zM158 406q0 -91 33.5 -162t91 -114t130.5 -65t156 -22t156 22t131 65t91.5 114t33.5 162q0 86 -33 150.5t-91 103t-130 57t-158 18.5t-158 -18.5t-130 -57t-90.5 -103t-32.5 -150.5zM211 1083 q0 -73 30 -128.5t81.5 -87.5t113.5 -48t133 -16q96 0 174.5 27t131.5 92t53 161q0 78 -29.5 135t-81 89.5t-113.5 47.5t-135 15t-135 -15t-113.5 -47.5t-80.5 -89.5t-29 -135z" />
<glyph unicode="9" d="M94 963q0 209 134.5 342t342.5 133q50 0 95.5 -7t97 -26t93.5 -49.5t81.5 -82t66.5 -119t43.5 -164t16.5 -214.5q0 -80 -5.5 -154t-21.5 -156.5t-40.5 -151.5t-65 -133t-93.5 -108.5t-128 -71t-166 -26.5q-179 0 -295.5 98.5t-136.5 274.5h77q23 -137 119.5 -221 t235.5 -84q80 0 146.5 27t111.5 71t79 106.5t53.5 125.5t31.5 137t16 132.5t4 119.5l-4 4q-46 -126 -151.5 -206.5t-260.5 -80.5q-212 0 -344.5 135.5t-132.5 348.5zM172 963q0 -170 115.5 -293t283.5 -123q173 0 286.5 121t113.5 295q0 170 -115.5 288.5t-284.5 118.5 t-284 -119t-115 -288z" />
<glyph unicode=":" horiz-adv-x="569" d="M231 0v211h105v-211h-105zM231 842v211h105v-211h-105z" />
<glyph unicode=";" horiz-adv-x="569" d="M205 -190q39 18 54 74.5t15 115.5h-43v211h105v-211q0 -92 -30.5 -162t-100.5 -96v68zM231 842v211h105v-211h-105z" />
<glyph unicode="&#x3c;" horiz-adv-x="1228" d="M94 467v106l1041 480v-86l-973 -447l973 -450v-86z" />
<glyph unicode="=" horiz-adv-x="1228" d="M98 281v77h1032v-77h-1032zM98 678v78h1032v-78h-1032z" />
<glyph unicode="&#x3e;" horiz-adv-x="1228" d="M94 -16v86l973 446l-973 451v86l1041 -484v-106z" />
<glyph unicode="?" horiz-adv-x="1062" d="M88 1010q0 223 118.5 355t336.5 132q112 0 200.5 -39t144.5 -123.5t56 -204.5q0 -63 -13.5 -114t-44 -95t-54.5 -70t-70 -69q-77 -70 -105 -105q-96 -120 -96 -306h-78q0 78 13.5 142.5t41 115t56 86.5t70.5 76q47 44 75.5 74.5t61.5 75t49 91.5t16 98q0 73 -27 130 t-74 91t-104.5 51t-123.5 17q-178 0 -274.5 -113.5t-96.5 -295.5h-78zM473 0v211h105v-211h-105z" />
<glyph unicode="@" horiz-adv-x="1638" d="M94 737q0 206 103 381.5t277 277t376 101.5q192 0 350.5 -81t251 -227.5t92.5 -328.5q0 -112 -43.5 -222t-111 -189.5t-151.5 -129t-163 -49.5q-57 0 -95.5 38t-39.5 108h-4q-103 -146 -274 -146q-115 0 -189 90.5t-74 217.5q0 107 36.5 215.5t99 196.5t154.5 143t194 55 q93 0 154.5 -55t74.5 -132h4l47 146h84l-196 -606q-33 -101 -33 -123q0 -30 23.5 -50t56.5 -20q90 0 176.5 81t139 202t52.5 235q0 124 -53 231.5t-139.5 179.5t-196 112.5t-223.5 40.5q-138 0 -264.5 -57t-217.5 -152.5t-145.5 -226t-54.5 -271.5q0 -118 38.5 -226 t105 -191.5t153 -145.5t187 -94.5t202.5 -32.5q167 0 318.5 84.5t244.5 226.5h90q-94 -173 -273.5 -276t-379.5 -103q-160 0 -302.5 61t-243.5 164.5t-159.5 246t-58.5 300.5zM477 588q0 -112 60 -181t151 -69q58 0 122.5 45t115.5 117q58 81 95.5 188.5t37.5 190.5 q0 28 -3 54.5t-14.5 62.5t-30.5 61.5t-55.5 44t-85.5 18.5q-67 0 -129.5 -34.5t-109 -91t-82 -126t-54 -142.5t-18.5 -138z" />
<glyph unicode="A" horiz-adv-x="1214" d="M-25 0l588 1462h99l577 -1462h-96l-185 469h-700l-186 -469h-97zM287 547h643l-314 827h-4z" />
<glyph unicode="B" horiz-adv-x="1290" d="M129 0v1462h586q101 0 181 -21.5t132 -57.5t86 -85.5t48 -102.5t14 -112q0 -120 -79.5 -208t-205.5 -103l4 -4q11 2 38 -4t65 -20t77 -42.5t73 -66t55.5 -96.5t21.5 -129q0 -196 -138 -303t-372 -107h-586zM219 78h496q197 0 308.5 86t111.5 246q0 89 -37.5 153 t-101.5 97t-133 47t-148 14h-496v-643zM219 799h496q179 0 274.5 82t95.5 219q0 76 -30 133t-82.5 89t-116.5 47t-141 15h-496v-585z" />
<glyph unicode="C" horiz-adv-x="1441" d="M74 731q0 161 48 300.5t135.5 243t219.5 163t293 59.5q106 0 195.5 -25.5t148 -64t104.5 -90t71 -97t42 -92.5t21.5 -69t5.5 -33h-90q-29 180 -169.5 286.5t-328.5 106.5q-186 0 -325.5 -94.5t-210 -249t-70.5 -344.5t70.5 -344.5t210 -249t325.5 -94.5q138 0 256.5 75 t188 195t77.5 256h90q-25 -261 -198 -432.5t-414 -171.5q-161 0 -293 59.5t-219.5 163t-135.5 243t-48 300.5z" />
<glyph unicode="D" horiz-adv-x="1366" d="M129 0v1462h479q152 0 270.5 -40.5t193.5 -108.5t124 -163.5t68.5 -197.5t19.5 -219q0 -158 -41 -289.5t-122.5 -231.5t-213.5 -156t-303 -56h-475zM219 78h393q86 0 165 19t156.5 66.5t134 120t91.5 188t35 261.5q0 124 -22.5 224t-58 166.5t-88 116.5t-103.5 76.5 t-114.5 42.5t-111 20.5t-102.5 4.5h-375v-1306z" />
<glyph unicode="E" horiz-adv-x="1146" d="M129 0v1462h983v-78h-893v-585h840v-78h-840v-643h903v-78h-993z" />
<glyph unicode="F" horiz-adv-x="1052" d="M129 0v1462h918v-78h-828v-585h746v-78h-746v-721h-90z" />
<glyph unicode="G" horiz-adv-x="1517" d="M76 723q0 124 29 239t87.5 212.5t140 169.5t193 112.5t240.5 40.5q151 0 279.5 -57.5t216 -169t112.5 -260.5h-86q-52 192 -187.5 300.5t-332.5 108.5q-144 0 -260 -57t-189.5 -154.5t-113 -221.5t-39.5 -263q0 -142 38.5 -264t111.5 -215.5t189.5 -147t262.5 -53.5 q261 0 412 163q142 153 142 397q0 18 -1 36h-539v78h617v-717h-78v311h-4q-54 -158 -206 -252t-347 -94q-130 0 -241 38.5t-192.5 107.5t-139.5 163.5t-86.5 208.5t-28.5 240z" />
<glyph unicode="H" horiz-adv-x="1372" d="M129 0v1462h90v-663h934v663h90v-1462h-90v721h-934v-721h-90z" />
<glyph unicode="I" horiz-adv-x="348" d="M129 0v1462h90v-1462h-90z" />
<glyph unicode="J" horiz-adv-x="985" d="M41 465h90q-1 -38 -1 -74v-53q2 -62 21.5 -115.5t52.5 -93.5t94.5 -63t145.5 -23q67 0 119.5 14t86 32.5t57 56.5t35 65.5t17.5 80t6.5 80.5t0.5 87v26v977h90v-1007q0 -155 -20 -232q-67 -257 -381 -258q-82 0 -147 17t-108 43t-73.5 68.5t-47 82t-25.5 95.5t-11 96.5 t-2 97.5z" />
<glyph unicode="K" horiz-adv-x="1255" d="M129 0v1462h90v-841l920 841h116l-667 -608l708 -854h-112l-662 793l-303 -277v-516h-90z" />
<glyph unicode="L" horiz-adv-x="1024" d="M129 0v1462h90v-1384h830v-78h-920z" />
<glyph unicode="M" horiz-adv-x="1656" d="M129 0v1462h129l571 -1362h5l565 1362h129v-1462h-90v1352h-4l-557 -1352h-91l-563 1352h-4v-1352h-90z" />
<glyph unicode="N" horiz-adv-x="1388" d="M129 0v1462h113l923 -1341h4v1341h91v-1462h-107l-930 1352h-4v-1352h-90z" />
<glyph unicode="O" horiz-adv-x="1517" d="M63 731q0 161 48 300.5t135.5 243t220 163t293.5 59.5q160 0 292 -59.5t219.5 -163t135 -243t47.5 -300.5t-47.5 -300.5t-135 -243t-219.5 -163t-292 -59.5q-161 0 -293.5 59.5t-220 163t-135.5 243t-48 300.5zM154 731q0 -190 70.5 -344.5t210 -249t325.5 -94.5 q112 0 209 35.5t168.5 99t123 149.5t77.5 189t26 215t-26 215t-77.5 189t-123 149.5t-168.5 99t-209 35.5q-186 0 -325.5 -94.5t-210 -249t-70.5 -344.5z" />
<glyph unicode="P" horiz-adv-x="1210" d="M129 0v1462h623q39 0 76 -4t80.5 -16t81 -30.5t73 -50.5t60.5 -73.5t40 -101.5t15 -133q0 -192 -120.5 -297t-338.5 -105h-500v-651h-90zM219 729h514q95 0 166 29t110.5 77.5t58.5 103.5t19 116q0 38 -7 76.5t-29.5 86t-58 82.5t-99.5 59.5t-148 24.5h-526v-655z" />
<glyph unicode="Q" horiz-adv-x="1517" d="M63 731q0 161 48 300.5t135.5 243t220 163t293.5 59.5q160 0 292 -59.5t219.5 -163t135 -243t47.5 -300.5q0 -178 -56.5 -328t-162.5 -251l227 -164l-47 -64l-241 174q-172 -133 -414 -133q-161 0 -293.5 59.5t-220 163t-135.5 243t-48 300.5zM154 731 q0 -190 70.5 -344.5t210 -249t325.5 -94.5q199 0 342 109l-221 157l47 64l235 -170q97 94 149 232t52 296q0 112 -26 215t-77.5 189t-123 149.5t-168.5 99t-209 35.5q-186 0 -325.5 -94.5t-210 -249t-70.5 -344.5z" />
<glyph unicode="R" horiz-adv-x="1290" d="M129 0v1462h610q80 0 147 -12t126.5 -39.5t100.5 -70t65 -107.5t24 -148q0 -148 -83.5 -248.5t-229.5 -125.5v-4q63 -7 111.5 -28t79 -49t50.5 -68t29.5 -80t14.5 -89q4 -47 5 -143.5t9.5 -155.5t34.5 -94h-101q-24 44 -31 120q-4 48 -4 93q0 27 1 51q1 21 1 43 q0 49 -6 103q-6 45 -18 81t-37 69.5t-62 56t-94.5 36t-132.5 13.5h-520v-666h-90zM219 743h520q169 0 271 83.5t102 252.5q0 80 -30 140.5t-83 95.5t-118 52t-142 17h-520v-641z" />
<glyph unicode="S" horiz-adv-x="1290" d="M80 483h90q-1 -15 -1 -30q-1 -75 21 -138q26 -75 74 -125t117 -83.5t147.5 -48.5t167.5 -15q56 0 112 10t113 35t100.5 61.5t71 95.5t27.5 132q0 165 -156 245q-87 45 -289 86q-11 2 -32 6l-1 1h-1h-1h-1l-1 1h-1h-1h-1h-1l-1 1h-1h-1h-1h-1l-1 1h-1h-1h-1h-1l-1 1h-1h-1 q-50 10 -82.5 17.5t-79.5 20t-78 24t-69.5 29.5t-63 37.5t-51 47t-41 58t-24 70t-9.5 85.5q0 81 29 148t77 111t112.5 74t132.5 43t140 13q117 0 214.5 -26t174 -79t121.5 -141.5t50 -206.5h-91q-7 183 -133.5 279t-335.5 96q-53 0 -105.5 -9t-107 -31.5t-95.5 -56.5 t-67 -89t-26 -125q0 -47 14 -86t35.5 -67t59 -52t72.5 -39t87.5 -30t93 -24t101.5 -21q23 -5 35 -7q65 -13 107.5 -23t100 -28.5t95 -38t78 -50t64 -67t39 -87t15.5 -111.5q0 -87 -32.5 -158.5t-84 -117.5t-120 -77.5t-138 -45t-139.5 -13.5q-133 0 -242 28.5t-195 88.5 t-133 162q-46 100 -46 233v6z" />
<glyph unicode="T" horiz-adv-x="1062" d="M-29 1384v78h1121v-78h-517v-1384h-90v1384h-514z" />
<glyph unicode="U" horiz-adv-x="1376" d="M129 586v876h90v-876q0 -45 3 -86t14.5 -98t30 -104t53.5 -96t82 -82.5t118 -55t158 -21.5q132 0 225.5 37.5t148.5 110.5t80 169.5t25 225.5v876h90v-876q0 -621 -569 -621q-549 0 -549 621z" />
<glyph unicode="V" d="M-29 1462h95l501 -1384h4l506 1384h90l-546 -1462h-105z" />
<glyph unicode="W" horiz-adv-x="1820" d="M-12 1462h92l381 -1366h4l387 1366h113l393 -1366h4l375 1366h96l-420 -1462h-102l-402 1384h-4l-395 -1384h-100z" />
<glyph unicode="X" d="M-35 0l549 752l-512 710h104l463 -643l473 643h103l-516 -710l545 -752h-109l-496 684l-497 -684h-107z" />
<glyph unicode="Y" horiz-adv-x="1175" d="M-43 1462h102l529 -774l530 774h101l-588 -850v-612h-90v612z" />
<glyph unicode="Z" horiz-adv-x="1099" d="M-2 0v78l987 1306h-928v78h1026v-78l-991 -1306h1010v-78h-1104z" />
<glyph unicode="[" horiz-adv-x="493" d="M193 -377v1874h280v-67h-203v-1739h203v-68h-280z" />
<glyph unicode="\" horiz-adv-x="681" d="M-27 1497h84l652 -1532h-84z" />
<glyph unicode="]" horiz-adv-x="493" d="M20 -309h203v1739h-203v67h281v-1874h-281v68z" />
<glyph unicode="^" horiz-adv-x="1228" d="M80 485l483 928h107l479 -928h-86l-447 861l-450 -861h-86z" />
<glyph unicode="_" horiz-adv-x="1024" d="M0 -154h1024v-102h-1024v102z" />
<glyph unicode="`" horiz-adv-x="342" d="M-61 1497h104l246 -287h-76z" />
<glyph unicode="a" horiz-adv-x="1024" d="M66 272q0 285 387 312q70 5 116 9.5t87.5 12t64.5 14t43 20t28.5 25.5t14.5 35.5t7 44.5t1 58q0 17 -7 40t-27.5 53t-51.5 55t-85 42t-122 17q-143 0 -229.5 -73t-93.5 -208h-78q7 172 110 260t291 88q59 0 109.5 -7.5t99.5 -26.5t83.5 -49.5t55.5 -79t21 -111.5v-608 q0 -25 0.5 -37.5t4 -32.5t10.5 -30.5t21 -18.5t34 -8q19 0 57 6v-66q-46 -8 -64 -8q-85 0 -113 39.5t-28 114.5v55h-4q-39 -100 -143 -167t-248 -67q-162 0 -257 70.5t-95 226.5zM143 272q0 -100 72 -164.5t205 -64.5q73 0 133 17t100 44t70.5 63t46.5 70t26.5 69.5 t13.5 57.5t3 37v197q-21 -25 -67 -40t-85.5 -20t-117 -11.5t-111.5 -10.5q-145 -18 -217 -74t-72 -170z" />
<glyph unicode="b" d="M133 0v1462h78v-633h4q43 118 154 183t245 65q91 0 166 -26.5t128.5 -74t90.5 -113.5t54.5 -144.5t17.5 -167.5q0 -104 -18 -190t-47 -144t-69.5 -103t-81.5 -70.5t-87.5 -41.5t-82.5 -21.5t-71 -5.5q-78 0 -145.5 22t-110 53.5t-75.5 70.5t-47.5 66.5t-20.5 48.5h-4 v-236h-78zM213 551q0 -100 23 -188.5t69.5 -161.5t125.5 -115.5t183 -42.5q80 0 145 30t108 79t72 115.5t41.5 137.5t12.5 146q0 120 -41 222.5t-129 169.5t-209 67q-198 0 -299.5 -126t-101.5 -333z" />
<glyph unicode="c" horiz-adv-x="1062" d="M68 537q0 111 32.5 208.5t92 171.5t152.5 117t206 43q179 0 298 -88.5t136 -261.5h-78q-10 135 -109 209t-247 74q-96 0 -174.5 -40t-128 -107t-76.5 -151t-27 -175q0 -222 104.5 -358t301.5 -136q146 0 246.5 91t120.5 237h77q-26 -185 -148 -290.5t-296 -105.5 q-100 0 -181.5 30.5t-136.5 83t-93 124.5t-55 153t-17 171z" />
<glyph unicode="d" d="M66 524q0 159 50 281.5t157.5 197t261.5 74.5q133 0 241 -69.5t148 -190.5h4v645h78v-1462h-78v225h-4q-130 -250 -404 -250q-115 0 -204 44.5t-142.5 121.5t-80.5 174t-27 209zM143 524q0 -95 24 -180t71 -153t124 -108t175 -40q77 0 142 27t110 72.5t76.5 107.5t46 131 t14.5 143q0 95 -23.5 180t-70 154.5t-123 110.5t-174.5 41q-81 0 -147.5 -26.5t-111.5 -71.5t-75.5 -107.5t-44 -132.5t-13.5 -148z" />
<glyph unicode="e" horiz-adv-x="1062" d="M68 508q0 111 28.5 211t84 181t146 129t205.5 48q120 0 213 -45t148 -123t81 -178q22 -84 22 -178q0 -18 -1 -37h-850v-12q-1 -120 39 -220q42 -106 132.5 -173.5t215.5 -67.5q149 0 249 83.5t128 229.5h78q-31 -184 -149 -282.5t-306 -98.5q-112 0 -201.5 42t-146 115.5 t-86.5 169.5t-30 206zM145 584h773q-2 113 -47 208.5t-134 156.5t-205 61q-84 0 -156 -37t-119.5 -98t-76.5 -136t-35 -155z" />
<glyph unicode="f" horiz-adv-x="493" d="M0 985v68h188v217q0 105 65 157t167 52q35 0 92 -11v-67q-52 10 -92 10q-72 0 -113 -32.5t-41 -114.5v-211h219v-68h-219v-985h-78v985h-188z" />
<glyph unicode="g" horiz-adv-x="1099" d="M68 559q0 142 50.5 258t155.5 188t248 72q128 0 234 -64t147 -179h4v219h78v-998q0 -22 -0.5 -38t-4.5 -53t-11.5 -66t-23.5 -69.5t-38 -71t-57 -62.5t-79 -52.5t-106 -32.5q-53 -11 -115 -11h-20q-395 7 -411 327h78q6 -68 34.5 -119t74.5 -81t103 -45t123 -15 q76 0 137 17.5t99 43t66 64t41.5 70.5t21.5 72.5t9 60.5t1 43v242h-4q-114 -240 -381 -240q-113 0 -201 40t-142.5 110.5t-82.5 164t-28 205.5zM145 559q0 -127 41.5 -228t128.5 -163t207 -62q93 0 167.5 37t120.5 100.5t70.5 144t24.5 171.5q0 90 -24 170t-70 143.5 t-120.5 100.5t-168.5 37q-92 0 -165.5 -39t-118.5 -103.5t-69 -143.5t-24 -165z" />
<glyph unicode="h" horiz-adv-x="1062" d="M115 0v1462h78v-635h4q39 115 144 182.5t232 67.5q77 0 137.5 -17.5t99 -43.5t66.5 -67t41.5 -75t21 -83t8.5 -75t1 -65v-651h-78v666q0 30 -1.5 54t-8 61.5t-18 66t-33.5 60.5t-53 53t-78.5 35t-106.5 14q-174 0 -276 -122t-102 -319v-569h-78z" />
<glyph unicode="i" horiz-adv-x="344" d="M133 0v1053h78v-1053h-78zM133 1251v211h78v-211h-78z" />
<glyph unicode="j" horiz-adv-x="344" d="M-70 -307q24 -4 52 -4q85 0 118 43.5t33 161.5v1159h78v-1166q0 -58 -8.5 -101.5t-31 -82.5t-66.5 -59.5t-109 -20.5q-46 0 -66 2v68zM133 1251v211h78v-211h-78z" />
<glyph unicode="k" horiz-adv-x="948" d="M119 0v1462h78v-968l649 559h112l-460 -394l493 -659h-106l-449 600l-239 -203v-397h-78z" />
<glyph unicode="l" horiz-adv-x="344" d="M133 0v1462h78v-1462h-78z" />
<glyph unicode="m" horiz-adv-x="1630" d="M117 0v1053h78v-215h4q25 101 118.5 170t210.5 69q139 0 218.5 -65t99.5 -158h4q95 223 334 223q150 0 239.5 -89.5t89.5 -268.5v-719h-77v721q0 76 -21 132.5t-49.5 85.5t-67 46t-64 21t-50.5 4q-147 0 -238.5 -101.5t-91.5 -285.5v-623h-78v721q0 75 -20 131t-47.5 85 t-64.5 46.5t-63.5 22t-52.5 4.5q-59 0 -116 -23.5t-106.5 -68t-80 -121.5t-30.5 -174v-623h-78z" />
<glyph unicode="n" horiz-adv-x="1062" d="M115 0v1053h78v-226h4q39 115 144 182.5t232 67.5q77 0 137.5 -17.5t99 -43.5t66.5 -67t41.5 -75t21 -83t8.5 -75t1 -65v-651h-78v666q0 30 -1.5 54t-8 61.5t-18 66t-33.5 60.5t-53 53t-78.5 35t-106.5 14q-174 0 -276 -122t-102 -319v-569h-78z" />
<glyph unicode="o" horiz-adv-x="1099" d="M66 526q0 113 32.5 212.5t92.5 175t152.5 119.5t205.5 44t205.5 -44t152.5 -119.5t92.5 -175t32.5 -212.5t-32.5 -212.5t-92.5 -175t-152.5 -119.5t-205.5 -44t-205.5 44t-152.5 119.5t-92.5 175t-32.5 212.5zM143 526q0 -129 45.5 -237t139.5 -177t221 -69t221 69 t139 177t45 237t-45 237t-139 177.5t-221 69.5q-96 0 -174.5 -40t-128 -107.5t-76.5 -154t-27 -182.5z" />
<glyph unicode="p" d="M133 -377v1430h78v-242h4q14 43 42.5 86t74 85t115 68.5t151.5 26.5q118 0 210 -44t148.5 -121.5t85.5 -175.5t29 -212q0 -163 -50 -284.5t-158 -193t-265 -71.5q-137 0 -238 60.5t-145 183.5h-4v-596h-78zM213 524q0 -79 11.5 -146.5t39 -130.5t70.5 -107t110.5 -70.5 t153.5 -26.5q80 0 146 25t111.5 69t77 105t46 132t14.5 150q0 74 -13.5 143t-44 132t-75.5 109.5t-112.5 74t-149.5 27.5t-148 -26.5t-109.5 -72t-72.5 -108.5t-42 -132.5t-13 -146.5z" />
<glyph unicode="q" d="M66 528q0 112 27 209t80.5 174t142.5 121.5t204 44.5q274 0 404 -250h4v226h78v-1430h-78v613h-4q-40 -121 -148 -191t-241 -70q-154 0 -261.5 74.5t-157.5 197t-50 281.5zM143 528q0 -78 13.5 -148t44 -132.5t75.5 -107.5t111.5 -71t147.5 -26q98 0 174.5 41t123 110 t70 154t23.5 180q0 93 -24 177.5t-70 153.5t-122.5 110t-172.5 41q-98 0 -175 -40t-124 -108.5t-71 -153.5t-24 -180z" />
<glyph unicode="r" horiz-adv-x="569" d="M115 0v1053h78v-234h6q31 105 147 175q107 65 234 66q11 0 22 -1v-78q-20 3 -40 3q-52 0 -108 -17q-78 -23 -143 -88q-64 -64 -91 -128t-27 -176v-575h-78z" />
<glyph unicode="s" horiz-adv-x="985" d="M74 350h78q9 -143 105.5 -225t242.5 -82q58 0 111 10t106 33t85 69t32 111q0 49 -21 86.5t-44 59t-80 42t-85 27t-103 21.5q-6 2 -9.5 2.5t-9 1.5t-9.5 2q-47 9 -78 17t-72.5 21t-69 27.5t-57 37t-46.5 49.5t-28 64.5t-11 82.5q0 60 23 108t60 77.5t87.5 49t102 27.5 t108.5 8q86 0 155.5 -19t122.5 -58.5t82 -105t29 -153.5h-78q-1 136 -86 202.5t-225 66.5q-78 0 -143.5 -18.5t-113 -66t-47.5 -118.5q0 -39 10.5 -69.5t40.5 -54t49.5 -37.5t73 -29t71.5 -19.5t83 -17.5q15 -3 23 -5q61 -12 101 -22t87.5 -27t77 -38.5t56 -52t38.5 -73 t12 -96.5q0 -81 -37.5 -140.5t-100 -91t-130.5 -45.5t-143 -14q-186 0 -304 98t-122 277z" />
<glyph unicode="t" horiz-adv-x="530" d="M0 985v68h195v327h77v-327h230v-68h-230v-735q0 -62 14 -100.5t46 -56t69 -22.5q26 -4 66 -4q16 0 33 1v-68q-33 -1 -63 -1q-15 1 -31 1q-44 0 -82.5 15t-67 41t-45 75.5t-16.5 118.5v735h-195z" />
<glyph unicode="u" horiz-adv-x="1062" d="M115 401v652h78v-666q0 -30 1.5 -54t8 -61.5t18 -66t33.5 -60.5t53 -53t78.5 -35t106.5 -14q174 0 276 121.5t102 318.5v570h78v-1053h-78v225h-4q-39 -115 -144.5 -182.5t-232.5 -67.5q-60 0 -110.5 11t-86.5 27.5t-65 43.5t-47 52.5t-31 61.5t-19.5 62t-10 62.5t-4 56 t-0.5 49.5z" />
<glyph unicode="v" horiz-adv-x="909" d="M-4 1053h90l381 -963h4l356 963h86l-397 -1053h-96z" />
<glyph unicode="w" horiz-adv-x="1441" d="M-4 1053h84l297 -963h4l287 963h104l289 -963h4l295 963h86l-338 -1053h-96l-289 954h-4l-291 -954h-98z" />
<glyph unicode="x" horiz-adv-x="909" d="M-12 0l413 553l-385 500h109l330 -441l331 441h101l-381 -500l416 -553h-107l-360 494l-369 -494h-98z" />
<glyph unicode="y" horiz-adv-x="909" d="M-12 1053h92l391 -961l360 961h89l-451 -1166q-69 -175 -123 -217q-38 -30 -91.5 -38.5t-154.5 -8.5v68q85 0 132.5 14t86.5 53q22 22 44.5 76t64.5 172z" />
<glyph unicode="z" horiz-adv-x="872" d="M18 0v74l707 911h-651v68h747v-74l-708 -911h741v-68h-836z" />
<glyph unicode="{" horiz-adv-x="681" d="M170 520v78q147 5 147 332v325q0 134 45 188t136 54h102v-67h-98q-62 0 -84.5 -46t-22.5 -165v-322q0 -56 -7.5 -103.5t-15.5 -78.5t-25.5 -59t-26 -40t-29.5 -27t-22 -15.5l-17 -8.5q2 -2 19.5 -15t30 -24.5t31.5 -39t31.5 -59.5t21.5 -85.5t9 -118.5v-321 q0 -119 22.5 -165t84.5 -46h98v-68h-102q-91 0 -136 54t-45 188v323q0 327 -147 332z" />
<glyph unicode="|" horiz-adv-x="454" d="M188 -438v2048h78v-2048h-78z" />
<glyph unicode="}" horiz-adv-x="681" d="M82 -309h98q62 0 84.5 46t22.5 165v321q0 65 9 118.5t21.5 85.5t31.5 59.5t31.5 39t30 24.5t19.5 15q-1 1 -4 2q-16 8 -27.5 15.5t-34.5 32.5t-38 57.5t-27 91.5t-12 133v322q0 119 -22.5 165t-84.5 46h-98v67h102q91 0 136 -54t45 -188v-325q0 -327 147 -332v-78 q-147 -5 -147 -332v-323q0 -134 -45 -188t-136 -54h-102v68z" />
<glyph unicode="~" horiz-adv-x="1228" d="M150 455q53 87 107.5 128.5t141.5 41.5q39 0 78 -9.5t65 -20t85 -36.5q11 -5 43.5 -22t51.5 -26t51.5 -17.5t62.5 -8.5q55 0 105.5 47.5t82.5 106.5l57 -57q-50 -78 -108.5 -126t-138.5 -48q-52 0 -103.5 18t-130.5 59q-121 62 -188 62q-135 0 -203 -154z" />
<glyph unicode="&#xa1;" horiz-adv-x="530" d="M213 885v211h104v-211h-104zM215 117l25 594h49l24 -594v-494h-98v494z" />
<glyph unicode="&#xa2;" d="M104 537q0 144 51.5 262.5t156 194.5t245.5 83v183h66v-183q167 -8 276 -97.5t123 -252.5h-78q-10 127 -97.5 200.5t-223.5 82.5v-967q133 10 222.5 100.5t108.5 227.5h78q-24 -176 -135 -280.5t-274 -115.5v-217h-66v217q-93 4 -169.5 36.5t-128.5 85t-87.5 123.5 t-51.5 150.5t-16 166.5zM182 537q0 -140 40.5 -247t126 -173.5t208.5 -73.5v967q-89 -7 -161 -49t-118 -108t-71 -147t-25 -169z" />
<glyph unicode="&#xa3;" d="M90 35q51 49 86 89t71.5 94.5t55.5 115t19 125.5q0 126 -60 217h-160v67h123q-39 70 -61 116.5t-42 115t-20 129.5q0 93 38 169t103 124t148 74t176 26q240 0 364 -128t118 -378h-78q-2 211 -99.5 319.5t-302.5 108.5q-179 0 -284 -83.5t-105 -227.5q0 -51 15 -106.5 t31 -89t46.5 -90.5t40.5 -79h328v-67h-289q47 -71 47 -221q0 -110 -58 -214t-144 -178l4 -4q106 74 192 74q84 0 213 -47q114 -43 187 -43q57 0 110.5 22.5t85 47t80.5 69.5l45 -67q-64 -68 -144 -109t-165 -41q-88 0 -221 45q-129 45 -197 45q-49 0 -94 -13.5t-70 -27.5 t-82 -49z" />
<glyph unicode="&#xa4;" d="M61 707q0 189 125 329l-116 115l55 55l115 -114q143 122 327 122q187 3 332 -124l111 112l55 -55l-113 -111q125 -140 125 -329q0 -191 -125 -328l111 -111l-55 -55l-109 111q-143 -125 -332 -125q-187 0 -327 125l-113 -115l-55 55l114 113q-122 143 -125 330zM152 707 q0 -117 57 -216.5t153 -157t207 -57.5q170 0 294 127t124 304t-124 303.5t-294 126.5t-293.5 -126.5t-123.5 -303.5z" />
<glyph unicode="&#xa5;" d="M-14 1462h98l487 -766l490 766h92l-487 -762h188v-67h-246v-160h246v-67h-246v-406h-78v406h-245v67h245v160h-245v67h188z" />
<glyph unicode="&#xa6;" horiz-adv-x="454" d="M188 -182v512h78v-512h-78zM188 842v512h78v-512h-78z" />
<glyph unicode="&#xa7;" d="M106 690q3 94 68 167.5t160 107.5q-63 46 -91.5 124.5t-19.5 124.5q0 81 49 148t127 102t164 33q174 -3 264.5 -108.5t92.5 -290.5h-78q4 84 -27.5 159t-97.5 123.5t-154 49.5q-97 2 -179.5 -59.5t-82.5 -156.5q-1 -51 20.5 -97.5t45 -76.5t81 -69t86.5 -55t102 -55 q19 -10 28 -15q45 -24 68 -36.5t64 -36t63.5 -41t54 -44t49 -52t35 -57t25 -67.5t7.5 -76q0 -113 -61 -181.5t-166 -96.5q64 -60 90.5 -113.5t26.5 -138.5q0 -74 -27.5 -130t-76.5 -88.5t-109 -48.5t-132 -16q-175 0 -273.5 109t-98.5 286h78q5 -144 78.5 -235.5 t213.5 -91.5q126 0 197.5 53t71.5 162q0 26 -6.5 51.5t-14 46t-26 43t-30.5 37.5t-40.5 36.5t-43 32t-50.5 32t-49.5 29.5t-55 30.5t-53.5 29.5q-65 37 -101 58.5t-86.5 56t-77.5 63t-54.5 66.5t-38 80.5t-9.5 91.5zM184 690q0 -40 15 -77.5t34 -63t54 -54t57.5 -43 t61.5 -38.5q247 -149 337 -207q17 -4 61 18t77 51q71 61 71 160q0 41 -17 79.5t-40.5 67t-62 59.5t-67.5 49.5t-71 43.5l-311 185q-82 -32 -140.5 -92t-58.5 -138z" />
<glyph unicode="&#xa8;" horiz-adv-x="342" d="M-37 1217v210h90v-210h-90zM287 1217v210h90v-210h-90z" />
<glyph unicode="&#xa9;" horiz-adv-x="1638" d="M53 731q0 209 102.5 385t278.5 278.5t385 102.5t385 -102.5t278.5 -278.5t102.5 -385t-102.5 -385t-278.5 -278.5t-385 -102.5t-385 102.5t-278.5 278.5t-102.5 385zM131 733q0 -192 90 -352.5t249 -254t351 -93.5t350 94t247 254.5t89 351.5q0 193 -89 353t-246.5 252 t-350.5 92q-194 0 -352.5 -92t-248 -251.5t-89.5 -353.5zM379 733q0 214 124 347.5t333 133.5q154 0 262.5 -84t128.5 -233h-78q-23 116 -107.5 183t-203.5 67q-178 0 -279.5 -114.5t-101.5 -297.5q0 -116 46 -211.5t134.5 -153t204.5 -57.5q120 0 198 70.5t109 191.5h78 q-19 -147 -127 -238t-258 -91q-138 0 -244 64t-162.5 174.5t-56.5 248.5z" />
<glyph unicode="&#xaa;" horiz-adv-x="634" d="M27 946q0 45 15.5 79.5t39.5 54.5t59 33.5t67 19t71 8.5q60 4 95.5 7.5t65 11t42 14.5t21 23t10 31.5t1.5 45.5q0 52 -52 80t-138 28q-85 0 -139 -43t-60 -118h-66q12 106 81 161.5t190 55.5q248 0 248 -174v-365q0 -20 0.5 -28.5t3.5 -22.5t11 -19.5t21 -5.5q21 0 37 4 v-55q-28 -4 -41 -4q-55 0 -73.5 23.5t-18.5 68.5v29h-4q-20 -59 -87.5 -99t-164.5 -40q-111 0 -173 44.5t-62 151.5zM92 946q0 -62 44 -101.5t120 -39.5q65 0 115 19.5t75.5 46t41.5 59.5t20 54t4 36v115q-14 -15 -43.5 -24.5t-55 -12.5t-74 -7t-67.5 -6q-89 -11 -134.5 -44 t-45.5 -95z" />
<glyph unicode="&#xab;" horiz-adv-x="796" d="M137 516v82l234 268v-104l-174 -205l174 -209v-100zM399 516v82l234 268v-104l-174 -205l174 -209v-100z" />
<glyph unicode="&#xac;" horiz-adv-x="1228" d="M98 678v78h1032v-535h-77v457h-955z" />
<glyph unicode="&#xad;" horiz-adv-x="720" d="M141 518v78h439v-78h-439z" />
<glyph unicode="&#xae;" horiz-adv-x="1638" d="M53 731q0 209 102.5 385t278.5 278.5t385 102.5t385 -102.5t278.5 -278.5t102.5 -385t-102.5 -385t-278.5 -278.5t-385 -102.5t-385 102.5t-278.5 278.5t-102.5 385zM131 731q0 -191 90 -351t249 -253.5t351 -93.5t350 94t247 254.5t89 351.5q0 193 -89 353t-246.5 252 t-350.5 92q-194 0 -352.5 -92t-248 -252t-89.5 -355zM541 279v905h340q152 0 223.5 -62.5t71.5 -187.5q0 -104 -64.5 -164t-169.5 -76l270 -415h-86l-272 417h-236v-417h-77zM618 764h193q48 0 83 2.5t76.5 12.5t67 28t43 50.5t17.5 78.5q0 50 -20 86.5t-54.5 56t-73 28.5 t-82.5 9h-250v-352z" />
<glyph unicode="&#xaf;" horiz-adv-x="342" d="M-76 1288v68h496v-68h-496z" />
<glyph unicode="&#xb0;" horiz-adv-x="819" d="M117 1145q0 123 85 208t208 85t207.5 -85t84.5 -208t-84.5 -208t-207.5 -85t-208 85t-85 208zM195 1145q0 -93 62 -159t153 -66t153 66t62 159t-62 159t-153 66t-153 -66t-62 -159z" />
<glyph unicode="&#xb1;" horiz-adv-x="1228" d="M98 0v78h1032v-78h-1032zM98 567v78h477v387h78v-387h477v-78h-477v-387h-78v387h-477z" />
<glyph unicode="&#xb2;" horiz-adv-x="681" d="M33 563q2 60 25 111t67.5 94t83 71t100.5 66q131 81 177 122q88 81 89 171q0 75 -57.5 129.5t-169.5 54.5q-117 0 -172 -65.5t-61 -188.5h-66q10 149 78.5 229.5t220.5 80.5q130 0 211.5 -61.5t81.5 -180.5q0 -49 -20.5 -94t-61 -85t-79.5 -69.5t-97 -66.5 q-13 -8 -53.5 -33t-54.5 -34t-45 -30.5t-45 -36t-34 -36t-32 -44.5t-21 -49h549v-55h-614z" />
<glyph unicode="&#xb3;" horiz-adv-x="681" d="M37 850h65q-4 -115 68 -182.5t197 -67.5q104 0 181 55t77 146q0 55 -26 94t-71.5 59t-98 27.5t-112.5 3.5v55q53 -2 101.5 5t91.5 25.5t68.5 55.5t25.5 88q0 54 -38 94t-90.5 57t-108.5 17q-114 0 -175.5 -65t-66.5 -172h-66q2 136 85 214.5t233 78.5q57 0 108 -12.5 t93.5 -38.5t67 -70.5t24.5 -102.5q0 -76 -50 -130t-131 -64v-4q92 -9 146.5 -69t54.5 -146q0 -84 -43.5 -143t-112.5 -86t-157 -27q-169 0 -257.5 78t-82.5 227z" />
<glyph unicode="&#xb4;" horiz-adv-x="342" d="M53 1210l246 287h104l-274 -287h-76z" />
<glyph unicode="&#xb5;" horiz-adv-x="1062" d="M115 -377v1430h78v-666q0 -30 1.5 -54t8 -61.5t18 -66t33.5 -60.5t53 -53t78.5 -35t106.5 -14q174 0 276 121.5t102 318.5v570h78v-1053h-78v225h-4q-39 -115 -144.5 -182.5t-232.5 -67.5q-203 0 -292 115h-4v-467h-78z" />
<glyph unicode="&#xb6;" horiz-adv-x="1228" d="M135 1061q0 195 120 298t337 103h444v-1761h-78v1694h-321v-1694h-78v963q-178 0 -301 117t-123 280z" />
<glyph unicode="&#xb7;" horiz-adv-x="569" d="M174 649q0 43 34 77t77 34t77.5 -33.5t34.5 -77.5t-34 -78t-78 -34t-77.5 34.5t-33.5 77.5z" />
<glyph unicode="&#xb8;" horiz-adv-x="342" d="M-18 -358l22 49q4 -1 19 -6.5t21.5 -8t20.5 -7t23.5 -6.5t23.5 -4.5t27.5 -3.5t28.5 -1q52 0 90.5 22.5t38.5 73.5q0 45 -33 69.5t-67 24.5q-56 0 -109 -24l-33 26l115 154h70l-99 -115l4 -4q43 19 76 19q64 0 109 -38.5t45 -111.5q0 -151 -209 -151q-100 0 -184 43z" />
<glyph unicode="&#xb9;" horiz-adv-x="681" d="M121 1214v56q74 10 139 50t107 99h59v-856h-66v760q-93 -97 -239 -109z" />
<glyph unicode="&#xba;" horiz-adv-x="684" d="M18 1094q0 152 85.5 248t238.5 96t238.5 -96t85.5 -248t-85.5 -248t-238.5 -96t-238.5 96t-85.5 248zM84 1094q0 -123 66 -206t192 -83t192 83t66 206t-66 205.5t-192 82.5t-192 -82.5t-66 -205.5z" />
<glyph unicode="&#xbb;" horiz-adv-x="796" d="M164 248v100l174 209l-174 205v104l233 -268v-82zM426 248v100l174 209l-174 205v104l233 -268v-82z" />
<glyph unicode="&#xbc;" horiz-adv-x="1708" d="M193 1214v56q74 10 138.5 50t106.5 99h60v-856h-66v760q-93 -97 -239 -109zM309 -49l953 1511h81l-952 -1511h-82zM872 213v55l410 580h96v-580h146v-55h-146v-213h-65v213h-441zM946 268h367v512h-4z" />
<glyph unicode="&#xbd;" horiz-adv-x="1708" d="M131 1214v56q74 10 139 50t107 99h59v-856h-65v760q-93 -97 -240 -109zM248 -49l952 1511h82l-952 -1511h-82zM989 0q2 49 19.5 93t41 76t64.5 66.5t72 55.5t80 51q131 81 177 122q89 80 89 171q0 75 -57.5 129.5t-169.5 54.5q-117 0 -172.5 -65.5t-61.5 -188.5h-65 q10 149 78 229t221 80q130 0 211 -61t81 -180q0 -49 -20.5 -94t-61 -85t-79.5 -70t-97 -67q-13 -8 -53.5 -33t-54 -34t-44.5 -30.5t-44.5 -35.5t-33.5 -36t-31 -44.5t-19 -48.5h545v-55h-615z" />
<glyph unicode="&#xbe;" horiz-adv-x="1708" d="M68 850h65q-4 -115 67.5 -182.5t196.5 -67.5q104 0 181 55t77 146q0 55 -26 94t-71 59t-97.5 27.5t-112.5 3.5v55q53 -2 101.5 5t91.5 25.5t68.5 55.5t25.5 88q0 54 -38.5 94t-91 57t-108.5 17q-114 0 -175 -64.5t-66 -172.5h-66q2 136 85 214.5t233 78.5q57 0 108 -12.5 t93 -38.5t66.5 -70.5t24.5 -102.5q0 -76 -49.5 -130t-130.5 -64v-4q92 -9 146.5 -69t54.5 -146q0 -84 -43.5 -143t-112.5 -86t-157 -27q-169 0 -257.5 78t-82.5 227zM406 -49l952 1511h82l-953 -1511h-81zM934 213v55l409 580h97v-580h145v-55h-145v-213h-66v213h-440z M1008 268h366v512h-4z" />
<glyph unicode="&#xbf;" horiz-adv-x="1062" d="M117 -35q0 63 13.5 114t44 95t54.5 70t70 69q4 3 11 10q36 33 55 51.5t49 57.5t45.5 76t28 94t12.5 123h78q0 -78 -13.5 -142.5t-41 -115t-56 -86.5t-70.5 -76q-47 -44 -75.5 -74.5t-61.5 -75t-49 -92t-16 -98.5q0 -73 27 -130t74 -91t104.5 -51t123.5 -17 q178 0 274.5 114t96.5 296h78q0 -223 -118.5 -355t-336.5 -132q-173 0 -287 94.5t-114 271.5zM483 885v211h105v-211h-105z" />
<glyph unicode="&#xc0;" horiz-adv-x="1214" d="M-25 0l588 1462h99l577 -1462h-96l-185 469h-700l-186 -469h-97zM287 547h643l-314 827h-4zM375 1851h104l246 -286h-76z" />
<glyph unicode="&#xc1;" horiz-adv-x="1214" d="M-25 0l588 1462h99l577 -1462h-96l-185 469h-700l-186 -469h-97zM287 547h643l-314 827h-4zM489 1565l246 286h105l-275 -286h-76z" />
<glyph unicode="&#xc2;" horiz-adv-x="1214" d="M-25 0l588 1462h99l577 -1462h-96l-185 469h-700l-186 -469h-97zM287 547h643l-314 827h-4zM330 1565l235 286h82l238 -286h-78l-201 235l-198 -235h-78z" />
<glyph unicode="&#xc3;" horiz-adv-x="1214" d="M-25 0l588 1462h99l577 -1462h-96l-185 469h-700l-186 -469h-97zM287 547h643l-314 827h-4zM311 1587q6 73 45 127q45 58 113 58q9 0 18 -1.5t16.5 -3t18.5 -6t17 -7t19 -9t17.5 -9t18.5 -10.5t18 -10q8 -4 35 -20t39 -22t31.5 -12.5t34.5 -6.5q39 0 63 35.5t29 81.5h59 q-10 -82 -43 -125q-45 -60 -112 -60q-23 0 -51.5 11t-43 20t-47.5 29q-92 57 -143 57q-39 0 -62 -35t-30 -82h-60z" />
<glyph unicode="&#xc4;" horiz-adv-x="1214" d="M-25 0l588 1462h99l577 -1462h-96l-185 469h-700l-186 -469h-97zM287 547h643l-314 827h-4zM399 1571v211h90v-211h-90zM723 1571v211h90v-211h-90z" />
<glyph unicode="&#xc5;" horiz-adv-x="1214" d="M-25 0l588 1462h99l577 -1462h-96l-185 469h-700l-186 -469h-97zM287 547h643l-314 827h-4zM393 1696q0 85 59 143.5t144 58.5t144 -58.5t59 -143.5t-59 -144t-144 -59t-144 59t-59 144zM449 1696q0 -62 43 -105t104 -43t104 43t43 105t-42.5 104.5t-104.5 42.5 t-104.5 -42.5t-42.5 -104.5z" />
<glyph unicode="&#xc6;" horiz-adv-x="1781" d="M-18 0l763 1462h1004v-78h-776v-585h717v-78h-717v-643h778v-78h-868v520h-549l-271 -520h-81zM375 598h508v786h-97z" />
<glyph unicode="&#xc7;" horiz-adv-x="1441" d="M74 731q0 161 48 300.5t135.5 243t219.5 163t293 59.5q106 0 195.5 -25.5t148 -64t104.5 -90t71 -97t42 -92.5t21.5 -69t5.5 -33h-90q-29 180 -169.5 286.5t-328.5 106.5q-186 0 -325.5 -94.5t-210 -249t-70.5 -344.5t70.5 -344.5t210 -249t325.5 -94.5q138 0 256.5 75 t188 195t77.5 256h90q-25 -261 -198 -432.5t-414 -171.5h-10l-68 -80l4 -4q43 19 76 19q64 0 109 -38.5t45 -111.5q0 -151 -209 -151q-101 0 -185 43l23 49q4 -1 19 -6.5t21.5 -8t20.5 -7t23.5 -6.5t23.5 -4.5t27.5 -3.5t28.5 -1q52 0 90.5 22.5t38.5 73.5q0 45 -33 69.5 t-67 24.5q-56 0 -109 -24l-33 26l90 123q-192 17 -334.5 122.5t-215 271t-72.5 368.5z" />
<glyph unicode="&#xc8;" horiz-adv-x="1146" d="M129 0v1462h983v-78h-893v-585h840v-78h-840v-643h903v-78h-993zM342 1851h104l246 -286h-76z" />
<glyph unicode="&#xc9;" horiz-adv-x="1146" d="M129 0v1462h983v-78h-893v-585h840v-78h-840v-643h903v-78h-993zM457 1565l245 286h105l-275 -286h-75z" />
<glyph unicode="&#xca;" horiz-adv-x="1146" d="M129 0v1462h983v-78h-893v-585h840v-78h-840v-643h903v-78h-993zM297 1565l235 286h82l238 -286h-78l-201 235l-198 -235h-78z" />
<glyph unicode="&#xcb;" horiz-adv-x="1146" d="M129 0v1462h983v-78h-893v-585h840v-78h-840v-643h903v-78h-993zM387 1571v211h90v-211h-90zM711 1571v211h90v-211h-90z" />
<glyph unicode="&#xcc;" horiz-adv-x="348" d="M-57 1851h104l246 -286h-76zM129 0v1462h90v-1462h-90z" />
<glyph unicode="&#xcd;" horiz-adv-x="348" d="M57 1565l246 286h105l-275 -286h-76zM129 0v1462h90v-1462h-90z" />
<glyph unicode="&#xce;" horiz-adv-x="348" d="M-102 1565l235 286h82l238 -286h-78l-201 235l-199 -235h-77zM129 0v1462h90v-1462h-90z" />
<glyph unicode="&#xcf;" horiz-adv-x="348" d="M-33 1571v211h90v-211h-90zM129 0v1462h90v-1462h-90zM291 1571v211h90v-211h-90z" />
<glyph unicode="&#xd0;" horiz-adv-x="1366" d="M-10 743v68h139v651h479q152 0 270.5 -40.5t193.5 -108.5t124 -163.5t68.5 -197.5t19.5 -219q0 -158 -41 -289.5t-122.5 -231.5t-213.5 -156t-303 -56h-475v743h-139zM219 78h393q86 0 165 19t156.5 66.5t134 120t91.5 188t35 261.5q0 124 -22.5 224t-58 166.5t-88 116.5 t-103.5 76.5t-114.5 42.5t-111 20.5t-102.5 4.5h-375v-573h541v-68h-541v-665z" />
<glyph unicode="&#xd1;" horiz-adv-x="1388" d="M129 0v1462h113l923 -1341h4v1341h91v-1462h-107l-930 1352h-4v-1352h-90zM399 1587q6 73 45 127q45 58 113 58q9 0 18 -1.5t16.5 -3t18.5 -6t17 -7t19 -9t17.5 -9t18.5 -10.5t18 -10q8 -4 35 -20t39 -22t31.5 -12.5t34.5 -6.5q39 0 63 35.5t29 81.5h59q-10 -82 -43 -125 q-45 -60 -112 -60q-23 0 -51.5 11t-43 20t-47.5 29q-92 57 -143 57q-39 0 -62 -35t-30 -82h-60z" />
<glyph unicode="&#xd2;" horiz-adv-x="1517" d="M63 731q0 161 48 300.5t135.5 243t220 163t293.5 59.5q160 0 292 -59.5t219.5 -163t135 -243t47.5 -300.5t-47.5 -300.5t-135 -243t-219.5 -163t-292 -59.5q-161 0 -293.5 59.5t-220 163t-135.5 243t-48 300.5zM154 731q0 -190 70.5 -344.5t210 -249t325.5 -94.5 q112 0 209 35.5t168.5 99t123 149.5t77.5 189t26 215t-26 215t-77.5 189t-123 149.5t-168.5 99t-209 35.5q-186 0 -325.5 -94.5t-210 -249t-70.5 -344.5zM526 1851h105l246 -286h-76z" />
<glyph unicode="&#xd3;" horiz-adv-x="1517" d="M63 731q0 161 48 300.5t135.5 243t220 163t293.5 59.5q160 0 292 -59.5t219.5 -163t135 -243t47.5 -300.5t-47.5 -300.5t-135 -243t-219.5 -163t-292 -59.5q-161 0 -293.5 59.5t-220 163t-135.5 243t-48 300.5zM154 731q0 -190 70.5 -344.5t210 -249t325.5 -94.5 q112 0 209 35.5t168.5 99t123 149.5t77.5 189t26 215t-26 215t-77.5 189t-123 149.5t-168.5 99t-209 35.5q-186 0 -325.5 -94.5t-210 -249t-70.5 -344.5zM641 1565l246 286h104l-274 -286h-76z" />
<glyph unicode="&#xd4;" horiz-adv-x="1517" d="M63 731q0 161 48 300.5t135.5 243t220 163t293.5 59.5q160 0 292 -59.5t219.5 -163t135 -243t47.5 -300.5t-47.5 -300.5t-135 -243t-219.5 -163t-292 -59.5q-161 0 -293.5 59.5t-220 163t-135.5 243t-48 300.5zM154 731q0 -190 70.5 -344.5t210 -249t325.5 -94.5 q112 0 209 35.5t168.5 99t123 149.5t77.5 189t26 215t-26 215t-77.5 189t-123 149.5t-168.5 99t-209 35.5q-186 0 -325.5 -94.5t-210 -249t-70.5 -344.5zM481 1565l236 286h82l237 -286h-78l-200 235l-199 -235h-78z" />
<glyph unicode="&#xd5;" horiz-adv-x="1517" d="M63 731q0 161 48 300.5t135.5 243t220 163t293.5 59.5q160 0 292 -59.5t219.5 -163t135 -243t47.5 -300.5t-47.5 -300.5t-135 -243t-219.5 -163t-292 -59.5q-161 0 -293.5 59.5t-220 163t-135.5 243t-48 300.5zM154 731q0 -190 70.5 -344.5t210 -249t325.5 -94.5 q112 0 209 35.5t168.5 99t123 149.5t77.5 189t26 215t-26 215t-77.5 189t-123 149.5t-168.5 99t-209 35.5q-186 0 -325.5 -94.5t-210 -249t-70.5 -344.5zM463 1587q6 73 45 127q45 58 113 58q9 0 18 -1.5t16.5 -3t18.5 -6t17 -7t19 -9t17.5 -9t18.5 -10.5t18 -10 q9 -5 35 -20t38 -21.5t31.5 -13t34.5 -6.5q39 0 63 35.5t29 81.5h60q-10 -82 -43 -125q-45 -60 -113 -60q-23 0 -51.5 11.5t-42 19.5t-47.5 29q-92 57 -144 57q-39 0 -62 -35t-30 -82h-59z" />
<glyph unicode="&#xd6;" horiz-adv-x="1517" d="M63 731q0 161 48 300.5t135.5 243t220 163t293.5 59.5q160 0 292 -59.5t219.5 -163t135 -243t47.5 -300.5t-47.5 -300.5t-135 -243t-219.5 -163t-292 -59.5q-161 0 -293.5 59.5t-220 163t-135.5 243t-48 300.5zM154 731q0 -190 70.5 -344.5t210 -249t325.5 -94.5 q112 0 209 35.5t168.5 99t123 149.5t77.5 189t26 215t-26 215t-77.5 189t-123 149.5t-168.5 99t-209 35.5q-186 0 -325.5 -94.5t-210 -249t-70.5 -344.5zM551 1571v211h90v-211h-90zM874 1571v211h91v-211h-91z" />
<glyph unicode="&#xd7;" horiz-adv-x="1228" d="M162 119l397 397l-397 399l53 56l399 -400l398 400l55 -56l-397 -399l397 -397l-55 -56l-398 400l-399 -400z" />
<glyph unicode="&#xd8;" horiz-adv-x="1517" d="M63 731q0 161 48 300.5t135.5 243t220 163t293.5 59.5q289 0 475 -186l139 151l53 -49l-143 -156q170 -207 170 -526q0 -161 -47.5 -300.5t-135 -243t-219.5 -163t-292 -59.5q-296 0 -481 191l-156 -172l-53 49l161 176q-168 208 -168 522zM154 731q0 -271 139 -457 l885 973q-169 172 -418 172q-186 0 -325.5 -94.5t-210 -249t-70.5 -344.5zM338 221q164 -178 422 -178q112 0 209 35.5t168.5 99t123 149.5t77.5 189t26 215q0 271 -139 461z" />
<glyph unicode="&#xd9;" horiz-adv-x="1376" d="M129 586v876h90v-876q0 -45 3 -86t14.5 -98t30 -104t53.5 -96t82 -82.5t118 -55t158 -21.5q132 0 225.5 37.5t148.5 110.5t80 169.5t25 225.5v876h90v-876q0 -621 -569 -621q-549 0 -549 621zM457 1851h104l246 -286h-76z" />
<glyph unicode="&#xda;" horiz-adv-x="1376" d="M129 586v876h90v-876q0 -45 3 -86t14.5 -98t30 -104t53.5 -96t82 -82.5t118 -55t158 -21.5q132 0 225.5 37.5t148.5 110.5t80 169.5t25 225.5v876h90v-876q0 -621 -569 -621q-549 0 -549 621zM571 1565l246 286h105l-275 -286h-76z" />
<glyph unicode="&#xdb;" horiz-adv-x="1376" d="M129 586v876h90v-876q0 -45 3 -86t14.5 -98t30 -104t53.5 -96t82 -82.5t118 -55t158 -21.5q132 0 225.5 37.5t148.5 110.5t80 169.5t25 225.5v876h90v-876q0 -621 -569 -621q-549 0 -549 621zM412 1565l235 286h82l238 -286h-78l-201 235l-199 -235h-77z" />
<glyph unicode="&#xdc;" horiz-adv-x="1376" d="M129 586v876h90v-876q0 -45 3 -86t14.5 -98t30 -104t53.5 -96t82 -82.5t118 -55t158 -21.5q132 0 225.5 37.5t148.5 110.5t80 169.5t25 225.5v876h90v-876q0 -621 -569 -621q-549 0 -549 621zM481 1571v211h90v-211h-90zM805 1571v211h90v-211h-90z" />
<glyph unicode="&#xdd;" horiz-adv-x="1175" d="M-43 1462h102l529 -774l530 774h101l-588 -850v-612h-90v612zM471 1565l246 286h104l-274 -286h-76z" />
<glyph unicode="&#xde;" horiz-adv-x="1214" d="M129 0v1462h90v-245h533q57 0 109 -8.5t112 -35t103.5 -69.5t72.5 -119t29 -176q0 -193 -120 -298t-339 -105h-500v-406h-90zM219 483h514q95 0 166 29t110.5 78t58.5 104.5t19 116.5q0 38 -7 76.5t-29.5 85.5t-58 82.5t-99.5 59.5t-148 24h-526v-656z" />
<glyph unicode="&#xdf;" horiz-adv-x="1024" d="M119 0v1100q0 189 93 288t280 99q170 0 277.5 -87.5t107.5 -252.5q0 -268 -244 -322v-4q155 -18 235 -119.5t80 -263.5q0 -82 -16.5 -149t-42.5 -111.5t-63.5 -78t-74 -52t-79 -30t-73 -14.5t-62.5 -3h-113v68h78q30 0 58 2.5t66.5 11.5t70.5 24.5t65 43.5t56 65.5 t37.5 95t14.5 127.5q0 79 -22.5 138.5t-61.5 97t-97 61t-121.5 32.5t-143.5 9v68q76 0 142 17.5t119 52.5t83.5 94.5t30.5 138.5q0 130 -87 201t-220 71q-151 0 -223 -83t-72 -236v-1100h-78z" />
<glyph unicode="&#xe0;" horiz-adv-x="1024" d="M66 272q0 285 387 312q70 5 116 9.5t87.5 12t64.5 14t43 20t28.5 25.5t14.5 35.5t7 44.5t1 58q0 17 -7 40t-27.5 53t-51.5 55t-85 42t-122 17q-143 0 -229.5 -73t-93.5 -208h-78q7 172 110 260t291 88q59 0 109.5 -7.5t99.5 -26.5t83.5 -49.5t55.5 -79t21 -111.5v-608 q0 -25 0.5 -37.5t4 -32.5t10.5 -30.5t21 -18.5t34 -8q19 0 57 6v-66q-46 -8 -64 -8q-85 0 -113 39.5t-28 114.5v55h-4q-39 -100 -143 -167t-248 -67q-162 0 -257 70.5t-95 226.5zM143 272q0 -100 72 -164.5t205 -64.5q73 0 133 17t100 44t70.5 63t46.5 70t26.5 69.5 t13.5 57.5t3 37v197q-21 -25 -67 -40t-85.5 -20t-117 -11.5t-111.5 -10.5q-145 -18 -217 -74t-72 -170zM281 1497h104l246 -287h-76z" />
<glyph unicode="&#xe1;" horiz-adv-x="1024" d="M66 272q0 285 387 312q70 5 116 9.5t87.5 12t64.5 14t43 20t28.5 25.5t14.5 35.5t7 44.5t1 58q0 17 -7 40t-27.5 53t-51.5 55t-85 42t-122 17q-143 0 -229.5 -73t-93.5 -208h-78q7 172 110 260t291 88q59 0 109.5 -7.5t99.5 -26.5t83.5 -49.5t55.5 -79t21 -111.5v-608 q0 -25 0.5 -37.5t4 -32.5t10.5 -30.5t21 -18.5t34 -8q19 0 57 6v-66q-46 -8 -64 -8q-85 0 -113 39.5t-28 114.5v55h-4q-39 -100 -143 -167t-248 -67q-162 0 -257 70.5t-95 226.5zM143 272q0 -100 72 -164.5t205 -64.5q73 0 133 17t100 44t70.5 63t46.5 70t26.5 69.5 t13.5 57.5t3 37v197q-21 -25 -67 -40t-85.5 -20t-117 -11.5t-111.5 -10.5q-145 -18 -217 -74t-72 -170zM395 1210l246 287h104l-274 -287h-76z" />
<glyph unicode="&#xe2;" horiz-adv-x="1024" d="M66 272q0 285 387 312q70 5 116 9.5t87.5 12t64.5 14t43 20t28.5 25.5t14.5 35.5t7 44.5t1 58q0 17 -7 40t-27.5 53t-51.5 55t-85 42t-122 17q-143 0 -229.5 -73t-93.5 -208h-78q7 172 110 260t291 88q59 0 109.5 -7.5t99.5 -26.5t83.5 -49.5t55.5 -79t21 -111.5v-608 q0 -25 0.5 -37.5t4 -32.5t10.5 -30.5t21 -18.5t34 -8q19 0 57 6v-66q-46 -8 -64 -8q-85 0 -113 39.5t-28 114.5v55h-4q-39 -100 -143 -167t-248 -67q-162 0 -257 70.5t-95 226.5zM143 272q0 -100 72 -164.5t205 -64.5q73 0 133 17t100 44t70.5 63t46.5 70t26.5 69.5 t13.5 57.5t3 37v197q-21 -25 -67 -40t-85.5 -20t-117 -11.5t-111.5 -10.5q-145 -18 -217 -74t-72 -170zM236 1210l235 287h82l238 -287h-78l-201 236l-199 -236h-77z" />
<glyph unicode="&#xe3;" horiz-adv-x="1024" d="M66 272q0 285 387 312q70 5 116 9.5t87.5 12t64.5 14t43 20t28.5 25.5t14.5 35.5t7 44.5t1 58q0 17 -7 40t-27.5 53t-51.5 55t-85 42t-122 17q-143 0 -229.5 -73t-93.5 -208h-78q7 172 110 260t291 88q59 0 109.5 -7.5t99.5 -26.5t83.5 -49.5t55.5 -79t21 -111.5v-608 q0 -25 0.5 -37.5t4 -32.5t10.5 -30.5t21 -18.5t34 -8q19 0 57 6v-66q-46 -8 -64 -8q-85 0 -113 39.5t-28 114.5v55h-4q-39 -100 -143 -167t-248 -67q-162 0 -257 70.5t-95 226.5zM143 272q0 -100 72 -164.5t205 -64.5q73 0 133 17t100 44t70.5 63t46.5 70t26.5 69.5 t13.5 57.5t3 37v197q-21 -25 -67 -40t-85.5 -20t-117 -11.5t-111.5 -10.5q-145 -18 -217 -74t-72 -170zM217 1233q6 73 45 127q44 57 113 57q43 0 125 -45l8 -4l10 -6q10 -6 35 -20.5t38 -21.5t32 -13.5t34 -6.5q39 0 63.5 35.5t29.5 81.5h59q-10 -82 -43 -125 q-45 -59 -113 -59q-23 0 -51 10.5t-43 19.5t-47 29q-31 19 -48.5 29t-44.5 19.5t-50 9.5q-39 0 -62.5 -35t-30.5 -82h-59z" />
<glyph unicode="&#xe4;" horiz-adv-x="1024" d="M66 272q0 285 387 312q70 5 116 9.5t87.5 12t64.5 14t43 20t28.5 25.5t14.5 35.5t7 44.5t1 58q0 17 -7 40t-27.5 53t-51.5 55t-85 42t-122 17q-143 0 -229.5 -73t-93.5 -208h-78q7 172 110 260t291 88q59 0 109.5 -7.5t99.5 -26.5t83.5 -49.5t55.5 -79t21 -111.5v-608 q0 -25 0.5 -37.5t4 -32.5t10.5 -30.5t21 -18.5t34 -8q19 0 57 6v-66q-46 -8 -64 -8q-85 0 -113 39.5t-28 114.5v55h-4q-39 -100 -143 -167t-248 -67q-162 0 -257 70.5t-95 226.5zM143 272q0 -100 72 -164.5t205 -64.5q73 0 133 17t100 44t70.5 63t46.5 70t26.5 69.5 t13.5 57.5t3 37v197q-21 -25 -67 -40t-85.5 -20t-117 -11.5t-111.5 -10.5q-145 -18 -217 -74t-72 -170zM305 1217v210h90v-210h-90zM629 1217v210h90v-210h-90z" />
<glyph unicode="&#xe5;" horiz-adv-x="1024" d="M66 272q0 285 387 312q70 5 116 9.5t87.5 12t64.5 14t43 20t28.5 25.5t14.5 35.5t7 44.5t1 58q0 17 -7 40t-27.5 53t-51.5 55t-85 42t-122 17q-143 0 -229.5 -73t-93.5 -208h-78q7 172 110 260t291 88q59 0 109.5 -7.5t99.5 -26.5t83.5 -49.5t55.5 -79t21 -111.5v-608 q0 -25 0.5 -37.5t4 -32.5t10.5 -30.5t21 -18.5t34 -8q19 0 57 6v-66q-46 -8 -64 -8q-85 0 -113 39.5t-28 114.5v55h-4q-39 -100 -143 -167t-248 -67q-162 0 -257 70.5t-95 226.5zM143 272q0 -100 72 -164.5t205 -64.5q73 0 133 17t100 44t70.5 63t46.5 70t26.5 69.5 t13.5 57.5t3 37v197q-21 -25 -67 -40t-85.5 -20t-117 -11.5t-111.5 -10.5q-145 -18 -217 -74t-72 -170zM309 1311q0 85 59 143.5t144 58.5t144 -58.5t59 -143.5t-59 -144t-144 -59t-144 59t-59 144zM365 1311q0 -62 43 -105t104 -43t104 43t43 105q0 61 -42.5 104t-104.5 43 t-104.5 -43t-42.5 -104z" />
<glyph unicode="&#xe6;" horiz-adv-x="1820" d="M66 268q0 72 25 128.5t63 89.5t91 54.5t101.5 30t102.5 9.5q35 4 90.5 7.5t91.5 5.5t78.5 11.5t67 26.5t40.5 50.5t14 82.5q-5 127 -78.5 186.5t-228.5 59.5q-147 0 -236.5 -71t-99.5 -216h-77q12 178 121 266t292 88q346 0 369 -268h4q49 134 151.5 201t247.5 67 q156 0 266 -78.5t157.5 -204.5t33.5 -278h-842q-9 -131 31 -237t132 -171t222 -65q151 0 247.5 79.5t119.5 227.5h78q-28 -174 -147 -274.5t-298 -100.5q-160 0 -273 79t-149 227h-4q-51 -142 -164.5 -224t-263.5 -82q-103 0 -185.5 29t-136.5 97t-54 167zM143 268 q0 -58 25.5 -103t69 -70.5t95 -38.5t109.5 -13q101 0 190 48.5t144 134t55 186.5v180h-4q-7 -13 -22 -22.5t-40.5 -16.5t-48 -11.5t-62.5 -8.5t-65.5 -6t-75 -4.5t-73.5 -4.5q-297 -22 -297 -250zM909 584h766q3 114 -42 210.5t-133.5 156t-203.5 59.5q-74 0 -136 -22.5 t-105.5 -62t-75 -94t-48.5 -116t-22 -131.5z" />
<glyph unicode="&#xe7;" horiz-adv-x="1062" d="M68 537q0 111 32.5 208.5t92 171.5t152.5 117t206 43q179 0 298 -88.5t136 -261.5h-78q-10 135 -109 209t-247 74q-96 0 -174.5 -40t-128 -107t-76.5 -151t-27 -175q0 -222 104.5 -358t301.5 -136q146 0 246.5 91t120.5 237h77q-24 -177 -136.5 -281t-276.5 -113l-80 -92 l4 -4q43 19 76 19q64 0 108.5 -38.5t44.5 -111.5q0 -151 -209 -151q-100 0 -184 43l23 49q2 -1 22 -8t25.5 -9t23.5 -7t29.5 -7t28.5 -4t34 -2q52 0 90.5 22.5t38.5 73.5q0 45 -33 69.5t-67 24.5q-55 0 -108 -24l-33 26l98 131q-92 5 -167 38t-126.5 85.5t-86 122.5 t-50.5 148.5t-16 165.5z" />
<glyph unicode="&#xe8;" horiz-adv-x="1062" d="M68 508q0 111 28.5 211t84 181t146 129t205.5 48q120 0 213 -45t148 -123t81 -178t21 -215h-850q-2 -127 39.5 -232.5t132 -173t215.5 -67.5q149 0 249 83.5t128 229.5h78q-31 -184 -149 -282.5t-306 -98.5q-112 0 -201.5 42t-146 115.5t-86.5 169.5t-30 206zM145 584 h773q-2 113 -47 208.5t-134 156.5t-205 61q-84 0 -156 -37t-119.5 -98t-76.5 -136t-35 -155zM299 1497h104l246 -287h-76z" />
<glyph unicode="&#xe9;" horiz-adv-x="1062" d="M68 508q0 111 28.5 211t84 181t146 129t205.5 48q120 0 213 -45t148 -123t81 -178t21 -215h-850q-2 -127 39.5 -232.5t132 -173t215.5 -67.5q149 0 249 83.5t128 229.5h78q-31 -184 -149 -282.5t-306 -98.5q-112 0 -201.5 42t-146 115.5t-86.5 169.5t-30 206zM145 584 h773q-2 113 -47 208.5t-134 156.5t-205 61q-84 0 -156 -37t-119.5 -98t-76.5 -136t-35 -155zM414 1210l245 287h105l-275 -287h-75z" />
<glyph unicode="&#xea;" horiz-adv-x="1062" d="M68 508q0 111 28.5 211t84 181t146 129t205.5 48q120 0 213 -45t148 -123t81 -178t21 -215h-850q-2 -127 39.5 -232.5t132 -173t215.5 -67.5q149 0 249 83.5t128 229.5h78q-31 -184 -149 -282.5t-306 -98.5q-112 0 -201.5 42t-146 115.5t-86.5 169.5t-30 206zM145 584 h773q-2 113 -47 208.5t-134 156.5t-205 61q-84 0 -156 -37t-119.5 -98t-76.5 -136t-35 -155zM254 1210l235 287h82l238 -287h-78l-201 236l-198 -236h-78z" />
<glyph unicode="&#xeb;" horiz-adv-x="1062" d="M68 508q0 111 28.5 211t84 181t146 129t205.5 48q120 0 213 -45t148 -123t81 -178t21 -215h-850q-2 -127 39.5 -232.5t132 -173t215.5 -67.5q149 0 249 83.5t128 229.5h78q-31 -184 -149 -282.5t-306 -98.5q-112 0 -201.5 42t-146 115.5t-86.5 169.5t-30 206zM145 584 h773q-2 113 -47 208.5t-134 156.5t-205 61q-84 0 -156 -37t-119.5 -98t-76.5 -136t-35 -155zM324 1217v210h90v-210h-90zM647 1217v210h90v-210h-90z" />
<glyph unicode="&#xec;" horiz-adv-x="344" d="M-59 1497h104l246 -287h-76zM133 0v1053h78v-1053h-78z" />
<glyph unicode="&#xed;" horiz-adv-x="344" d="M55 1210l246 287h105l-275 -287h-76zM133 0v1053h78v-1053h-78z" />
<glyph unicode="&#xee;" horiz-adv-x="344" d="M-104 1210l235 287h82l238 -287h-78l-201 236l-199 -236h-77zM133 0v1053h78v-1053h-78z" />
<glyph unicode="&#xef;" horiz-adv-x="344" d="M-35 1217v210h90v-210h-90zM133 0v1053h78v-1053h-78zM289 1217v210h90v-210h-90z" />
<glyph unicode="&#xf0;" horiz-adv-x="1099" d="M66 510q0 108 32.5 203t93 167t153.5 114t206 42q101 0 183 -33.5t151 -117.5l4 4q-85 199 -318 385l-229 -127l-43 45l221 123q-116 87 -211 133l58 49q125 -67 221 -145l235 131l41 -45l-223 -125q196 -157 293.5 -354.5t97.5 -448.5q0 -151 -52 -270t-162.5 -192 t-266.5 -73q-121 0 -214.5 41t-152 114.5t-88.5 169.5t-30 210zM143 510q0 -93 25.5 -175.5t74.5 -148.5t128.5 -104.5t179.5 -38.5q102 0 181 38t126.5 103.5t71.5 148t24 177.5q0 91 -26 172.5t-74.5 146t-127 102.5t-175.5 38q-128 0 -222.5 -66t-140 -168.5 t-45.5 -224.5z" />
<glyph unicode="&#xf1;" horiz-adv-x="1062" d="M115 0v1053h78v-226h4q39 115 144 182.5t232 67.5q77 0 137.5 -17.5t99 -43.5t66.5 -67t41.5 -75t21 -83t8.5 -75t1 -65v-651h-78v666q0 30 -1.5 54t-8 61.5t-18 66t-33.5 60.5t-53 53t-78.5 35t-106.5 14q-174 0 -276 -122t-102 -319v-569h-78zM236 1233q6 73 45 127 q44 57 112 57q22 0 50 -10t43 -17.5t51 -27.5q10 -6 35 -20.5t38 -21.5t32 -13.5t34 -6.5q39 0 63 35.5t29 81.5h59q-10 -82 -43 -125q-45 -59 -112 -59q-48 0 -142 59q-31 19 -48.5 29t-44.5 19.5t-50 9.5q-39 0 -62 -35t-30 -82h-59z" />
<glyph unicode="&#xf2;" horiz-adv-x="1099" d="M66 526q0 113 32.5 212.5t92.5 175t152.5 119.5t205.5 44t205.5 -44t152.5 -119.5t92.5 -175t32.5 -212.5t-32.5 -212.5t-92.5 -175t-152.5 -119.5t-205.5 -44t-205.5 44t-152.5 119.5t-92.5 175t-32.5 212.5zM143 526q0 -129 45.5 -237t139.5 -177t221 -69t221 69 t139 177t45 237t-45 237t-139 177.5t-221 69.5q-96 0 -174.5 -40t-128 -107.5t-76.5 -154t-27 -182.5zM317 1497h105l246 -287h-76z" />
<glyph unicode="&#xf3;" horiz-adv-x="1099" d="M66 526q0 113 32.5 212.5t92.5 175t152.5 119.5t205.5 44t205.5 -44t152.5 -119.5t92.5 -175t32.5 -212.5t-32.5 -212.5t-92.5 -175t-152.5 -119.5t-205.5 -44t-205.5 44t-152.5 119.5t-92.5 175t-32.5 212.5zM143 526q0 -129 45.5 -237t139.5 -177t221 -69t221 69 t139 177t45 237t-45 237t-139 177.5t-221 69.5q-96 0 -174.5 -40t-128 -107.5t-76.5 -154t-27 -182.5zM432 1210l246 287h104l-274 -287h-76z" />
<glyph unicode="&#xf4;" horiz-adv-x="1099" d="M66 526q0 113 32.5 212.5t92.5 175t152.5 119.5t205.5 44t205.5 -44t152.5 -119.5t92.5 -175t32.5 -212.5t-32.5 -212.5t-92.5 -175t-152.5 -119.5t-205.5 -44t-205.5 44t-152.5 119.5t-92.5 175t-32.5 212.5zM143 526q0 -129 45.5 -237t139.5 -177t221 -69t221 69 t139 177t45 237t-45 237t-139 177.5t-221 69.5q-96 0 -174.5 -40t-128 -107.5t-76.5 -154t-27 -182.5zM272 1210l236 287h82l237 -287h-77l-201 236l-199 -236h-78z" />
<glyph unicode="&#xf5;" horiz-adv-x="1099" d="M66 526q0 113 32.5 212.5t92.5 175t152.5 119.5t205.5 44t205.5 -44t152.5 -119.5t92.5 -175t32.5 -212.5t-32.5 -212.5t-92.5 -175t-152.5 -119.5t-205.5 -44t-205.5 44t-152.5 119.5t-92.5 175t-32.5 212.5zM143 526q0 -129 45.5 -237t139.5 -177t221 -69t221 69 t139 177t45 237t-45 237t-139 177.5t-221 69.5q-96 0 -174.5 -40t-128 -107.5t-76.5 -154t-27 -182.5zM254 1233q6 73 45 127q44 57 113 57q43 0 125 -45l8 -4l10 -6q10 -6 35 -20.5t38 -21.5t32 -13.5t34 -6.5q39 0 63 35.5t29 81.5h60q-10 -82 -43 -125q-45 -59 -113 -59 q-23 0 -51 10.5t-43 19.5t-47 29q-31 19 -48.5 29t-44.5 19.5t-50 9.5q-39 0 -62.5 -35t-30.5 -82h-59z" />
<glyph unicode="&#xf6;" horiz-adv-x="1099" d="M66 526q0 113 32.5 212.5t92.5 175t152.5 119.5t205.5 44t205.5 -44t152.5 -119.5t92.5 -175t32.5 -212.5t-32.5 -212.5t-92.5 -175t-152.5 -119.5t-205.5 -44t-205.5 44t-152.5 119.5t-92.5 175t-32.5 212.5zM143 526q0 -129 45.5 -237t139.5 -177t221 -69t221 69 t139 177t45 237t-45 237t-139 177.5t-221 69.5q-96 0 -174.5 -40t-128 -107.5t-76.5 -154t-27 -182.5zM342 1217v210h90v-210h-90zM666 1217v210h90v-210h-90z" />
<glyph unicode="&#xf7;" horiz-adv-x="1228" d="M98 477v78h1032v-78h-1032zM512 104q0 44 30.5 75.5t73.5 31.5t75 -31.5t32 -75.5q0 -42 -32 -73t-75 -31t-73.5 30.5t-30.5 73.5zM512 926q0 44 30.5 75t73.5 31t75 -31t32 -75q0 -43 -32 -74t-75 -31t-73.5 31t-30.5 74z" />
<glyph unicode="&#xf8;" horiz-adv-x="1099" d="M51 47l117 125q-102 141 -102 354q0 113 32.5 212.5t92.5 175t152.5 119.5t205.5 44q214 0 340 -145l112 119l50 -47l-119 -127q100 -142 100 -351q0 -113 -32.5 -212.5t-92.5 -175t-152.5 -119.5t-205.5 -44q-206 0 -338 142l-111 -117zM143 526q0 -173 80 -297l613 648 q-105 133 -287 133q-96 0 -174.5 -40t-128 -107.5t-76.5 -154t-27 -182.5zM264 172q110 -129 285 -129q127 0 221 69t139 177t45 237q0 171 -77 293z" />
<glyph unicode="&#xf9;" horiz-adv-x="1062" d="M115 401v652h78v-666q0 -30 1.5 -54t8 -61.5t18 -66t33.5 -60.5t53 -53t78.5 -35t106.5 -14q174 0 276 121.5t102 318.5v570h78v-1053h-78v225h-4q-39 -115 -144.5 -182.5t-232.5 -67.5q-60 0 -110.5 11t-86.5 27.5t-65 43.5t-47 52.5t-31 61.5t-19.5 62t-10 62.5t-4 56 t-0.5 49.5zM299 1497h104l246 -287h-76z" />
<glyph unicode="&#xfa;" horiz-adv-x="1062" d="M115 401v652h78v-666q0 -30 1.5 -54t8 -61.5t18 -66t33.5 -60.5t53 -53t78.5 -35t106.5 -14q174 0 276 121.5t102 318.5v570h78v-1053h-78v225h-4q-39 -115 -144.5 -182.5t-232.5 -67.5q-60 0 -110.5 11t-86.5 27.5t-65 43.5t-47 52.5t-31 61.5t-19.5 62t-10 62.5t-4 56 t-0.5 49.5zM414 1210l245 287h105l-275 -287h-75z" />
<glyph unicode="&#xfb;" horiz-adv-x="1062" d="M115 401v652h78v-666q0 -30 1.5 -54t8 -61.5t18 -66t33.5 -60.5t53 -53t78.5 -35t106.5 -14q174 0 276 121.5t102 318.5v570h78v-1053h-78v225h-4q-39 -115 -144.5 -182.5t-232.5 -67.5q-60 0 -110.5 11t-86.5 27.5t-65 43.5t-47 52.5t-31 61.5t-19.5 62t-10 62.5t-4 56 t-0.5 49.5zM254 1210l235 287h82l238 -287h-78l-201 236l-198 -236h-78z" />
<glyph unicode="&#xfc;" horiz-adv-x="1062" d="M115 401v652h78v-666q0 -30 1.5 -54t8 -61.5t18 -66t33.5 -60.5t53 -53t78.5 -35t106.5 -14q174 0 276 121.5t102 318.5v570h78v-1053h-78v225h-4q-39 -115 -144.5 -182.5t-232.5 -67.5q-60 0 -110.5 11t-86.5 27.5t-65 43.5t-47 52.5t-31 61.5t-19.5 62t-10 62.5t-4 56 t-0.5 49.5zM324 1217v210h90v-210h-90zM647 1217v210h90v-210h-90z" />
<glyph unicode="&#xfd;" horiz-adv-x="909" d="M-12 1053h92l391 -961l360 961h89l-451 -1166q-69 -175 -123 -217q-38 -30 -91.5 -38.5t-154.5 -8.5v68q85 0 132.5 14t86.5 53q22 22 44.5 76t64.5 172zM338 1210l246 287h104l-274 -287h-76z" />
<glyph unicode="&#xfe;" d="M133 -377v1839h78v-651h4q14 43 42.5 86t74 85t115 68.5t151.5 26.5q118 0 210 -44t148.5 -121.5t85.5 -175.5t29 -212q0 -163 -50 -284.5t-158 -193t-265 -71.5q-137 0 -238 60.5t-145 183.5h-4v-596h-78zM213 524q0 -79 11.5 -146.5t39 -130.5t70.5 -107t110.5 -70.5 t153.5 -26.5q80 0 146 25t111.5 69t77 105t46 132t14.5 150q0 74 -13.5 143t-44 132t-75.5 109.5t-112.5 74t-149.5 27.5t-148 -26.5t-109.5 -72t-72.5 -108.5t-42 -132.5t-13 -146.5z" />
<glyph unicode="&#xff;" horiz-adv-x="909" d="M-12 1053h92l391 -961l360 961h89l-451 -1166q-69 -175 -123 -217q-38 -30 -91.5 -38.5t-154.5 -8.5v68q85 0 132.5 14t86.5 53q22 22 44.5 76t64.5 172zM248 1217v210h90v-210h-90zM571 1217v210h91v-210h-91z" />
<glyph unicode="&#x152;" horiz-adv-x="2162" d="M63 725q0 157 46.5 296.5t132 245.5t218 168t294.5 62q119 0 231.5 -44t188.5 -126v135h954v-78h-864v-585h774v-78h-774v-643h868v-78h-958v135h-5q-56 -73 -168.5 -121.5t-263.5 -48.5q-128 0 -236.5 38t-188.5 107t-136.5 163.5t-84.5 209t-28 242.5zM154 725 q0 -142 36.5 -263.5t107 -216t185 -148.5t260.5 -54q151 0 258 55q60 32 116.5 77.5t56.5 84.5v924q0 37 -36.5 76t-80.5 69q-134 90 -295 90q-145 0 -262 -56t-191.5 -152t-114.5 -220.5t-40 -265.5z" />
<glyph unicode="&#x153;" horiz-adv-x="1820" d="M66 512q0 115 27.5 215t81 179t142.5 125t203 46q152 0 254.5 -81.5t134.5 -229.5h4q83 311 408 311q93 0 168.5 -30.5t126.5 -83t84 -124.5t46 -153t9 -170h-805q-4 -74 6.5 -142t39 -129t71.5 -105.5t108.5 -70.5t145.5 -26q140 0 227 81t121 222h78 q-38 -174 -145.5 -272.5t-280.5 -98.5q-166 0 -274 81.5t-136 228.5h-4q-82 -310 -393 -310q-97 0 -174 29.5t-127.5 79.5t-84 120t-48 146t-14.5 162zM143 512q0 -76 13 -143.5t42.5 -127.5t72 -103.5t105.5 -69t140 -25.5q83 0 147 29t102.5 75t63.5 109.5t34 125.5t9 130 q0 80 -11 150.5t-37 135.5t-65.5 111t-101 73.5t-139.5 27.5q-83 0 -149.5 -30t-108 -79t-68.5 -115.5t-38 -133.5t-11 -140zM950 584h727q0 67 -14 129t-43 116.5t-70.5 94.5t-100.5 63t-128 23q-91 0 -164 -35.5t-118 -95.5t-68 -136t-21 -159z" />
<glyph unicode="&#x178;" horiz-adv-x="1175" d="M-43 1462h102l529 -774l530 774h101l-588 -850v-612h-90v612zM381 1571v211h90v-211h-90zM705 1571v211h90v-211h-90z" />
<glyph unicode="&#x2c6;" horiz-adv-x="342" d="M-106 1210l235 287h82l238 -287h-78l-201 236l-199 -236h-77z" />
<glyph unicode="&#x2dc;" horiz-adv-x="342" d="M-125 1233q6 73 45 127q44 57 113 57q43 0 125 -45l8 -4l10 -6q10 -6 35 -20.5t38 -21.5t32 -13.5t34 -6.5q39 0 63.5 35.5t29.5 81.5h59q-10 -82 -43 -125q-45 -59 -113 -59q-23 0 -51 10.5t-43 19.5t-47 29q-31 19 -48.5 29t-44.5 19.5t-50 9.5q-39 0 -62.5 -35 t-30.5 -82h-59z" />
<glyph unicode="&#x2000;" horiz-adv-x="949" />
<glyph unicode="&#x2001;" horiz-adv-x="1898" />
<glyph unicode="&#x2002;" horiz-adv-x="949" />
<glyph unicode="&#x2003;" horiz-adv-x="1898" />
<glyph unicode="&#x2004;" horiz-adv-x="632" />
<glyph unicode="&#x2005;" horiz-adv-x="474" />
<glyph unicode="&#x2006;" horiz-adv-x="316" />
<glyph unicode="&#x2007;" horiz-adv-x="316" />
<glyph unicode="&#x2008;" horiz-adv-x="237" />
<glyph unicode="&#x2009;" horiz-adv-x="379" />
<glyph unicode="&#x200a;" horiz-adv-x="105" />
<glyph unicode="&#x2010;" horiz-adv-x="720" d="M141 518v78h439v-78h-439z" />
<glyph unicode="&#x2011;" horiz-adv-x="720" d="M141 518v78h439v-78h-439z" />
<glyph unicode="&#x2012;" horiz-adv-x="720" d="M141 518v78h439v-78h-439z" />
<glyph unicode="&#x2013;" horiz-adv-x="1024" d="M0 518v78h1024v-78h-1024z" />
<glyph unicode="&#x2014;" horiz-adv-x="2048" d="M266 518v78h1516v-78h-1516z" />
<glyph unicode="&#x2018;" horiz-adv-x="417" d="M162 993v211q0 92 30.5 162t100.5 96v-67q-39 -18 -54.5 -75.5t-15.5 -115.5h43v-211h-104z" />
<glyph unicode="&#x2019;" horiz-adv-x="417" d="M125 993v68q39 18 54.5 75t15.5 115h-43v211h104v-211q0 -92 -30.5 -162t-100.5 -96z" />
<glyph unicode="&#x201a;" horiz-adv-x="417" d="M125 -190q39 18 54.5 75t15.5 115h-43v211h104v-211q0 -92 -30.5 -162t-100.5 -96v68z" />
<glyph unicode="&#x201c;" horiz-adv-x="645" d="M131 993v211q0 92 30.5 162t100.5 96v-67q-39 -18 -54 -75t-15 -116h43v-211h-105zM389 993v211q0 92 30.5 162t100.5 96v-67q-39 -18 -54 -75t-15 -116h43v-211h-105z" />
<glyph unicode="&#x201d;" horiz-adv-x="645" d="M125 993v68q39 18 54.5 75t15.5 115h-43v211h104v-211q0 -92 -30.5 -162t-100.5 -96zM383 993v68q39 18 54.5 75t15.5 115h-43v211h104v-211q0 -92 -30.5 -162t-100.5 -96z" />
<glyph unicode="&#x201e;" horiz-adv-x="645" d="M125 -190q39 18 54.5 75t15.5 115h-43v211h104v-211q0 -92 -30.5 -162t-100.5 -96v68zM383 -190q39 18 54.5 75t15.5 115h-43v211h104v-211q0 -92 -30.5 -162t-100.5 -96v68z" />
<glyph unicode="&#x2022;" horiz-adv-x="1024" d="M147 731q0 152 106.5 258.5t258.5 106.5t259.5 -106.5t107.5 -258.5t-107.5 -259t-259.5 -107t-258.5 107t-106.5 259z" />
<glyph unicode="&#x2026;" horiz-adv-x="2048" d="M289 0v211h104v-211h-104zM971 0v211h104v-211h-104zM1653 0v211h104v-211h-104z" />
<glyph unicode="&#x202f;" horiz-adv-x="379" />
<glyph unicode="&#x2039;" horiz-adv-x="530" d="M137 516v82l234 268v-104l-174 -205l174 -209v-100z" />
<glyph unicode="&#x203a;" horiz-adv-x="530" d="M160 248v100l174 209l-174 205v104l233 -268v-82z" />
<glyph unicode="&#x205f;" horiz-adv-x="474" />
<glyph unicode="&#x20ac;" d="M25 549l30 67h99q-9 105 0 197h-129l30 68h103q10 126 57.5 245t134.5 195q134 117 340 117q160 0 260 -62q95 -60 135 -157l-43 -78q-33 109 -131 174q-85 55 -221 55q-192 0 -305 -115q-63 -64 -101 -168.5t-46 -205.5h680l-31 -68h-656q-7 -88 0 -197h580l-31 -67 h-540q18 -195 110 -328q120 -178 348 -178q112 0 197 35q98 37 174 125v-94q-61 -58 -141 -89q-109 -45 -240 -45q-129 0 -232 52t-171 149q-53 75 -86 175t-41 198h-133z" />
<glyph unicode="&#x2122;" horiz-adv-x="2027" d="M174 1395v67h653v-67h-292v-777h-66v777h-295zM989 618v844h121l311 -708l312 708h120v-844h-65v777h-6l-342 -777h-37l-342 777h-6v-777h-66z" />
<glyph unicode="&#xe000;" horiz-adv-x="1054" d="M0 0v1055h1055v-1055h-1055z" />
<glyph unicode="&#xfb01;" horiz-adv-x="796" d="M0 985v68h188v217q0 105 65 157t167 52q35 0 92 -11v-67q-52 10 -92 10q-72 0 -113 -32.5t-41 -114.5v-211h219v-68h-219v-985h-78v985h-188zM586 0v1053h78v-1053h-78zM586 1251v211h78v-211h-78z" />
<glyph unicode="&#xfb02;" horiz-adv-x="796" d="M0 985v68h188v217q0 105 65 157t167 52q35 0 92 -11v-67q-52 10 -92 10q-72 0 -113 -32.5t-41 -114.5v-211h219v-68h-219v-985h-78v985h-188zM586 0v1462h78v-1462h-78z" />
</font>
</defs></svg> 