<?xml version="1.0" encoding="utf-8"?>
<!-- Generator: Adobe Illustrator 25.1.0, SVG Export Plug-In . SVG Version: 6.00 Build 0)  -->
<svg version="1.1" id="Capa_1" xmlns="http://www.w3.org/2000/svg" xmlns:xlink="http://www.w3.org/1999/xlink" x="0px" y="0px"
	 viewBox="0 0 60 60" style="enable-background:new 0 0 60 60;" xml:space="preserve">
<style type="text/css">
	.st0{fill:none;stroke:#888888;stroke-width:2;stroke-linecap:round;stroke-linejoin:round;stroke-miterlimit:10;}
</style>
<path class="st0" d="M16.151,22.649c-0.268,0.278-0.712,0.278-0.98,0L8.706,15.94c-1.253-1.246-1.563-3.149-0.772-4.725
	c1.257-2.499,4.605-3.04,6.591-1.064l1.136,1.13l1.136-1.13c1.986-1.976,5.334-1.435,6.59,1.064c0.792,1.576,0.482,3.479-0.77,4.725
	L16.151,22.649z M22.469,16.093h10.704c1.204,0,2.181,0.977,2.181,2.181v5.544 M35.535,36.905h2.181 M18.086,36.905h2.181
	 M24.629,41.267h17.449V30.361c0-1.204-0.976-2.181-2.181-2.181H26.81c-1.204,0-2.181,0.977-2.181,2.181V41.267z M24.629,41.267
	H9.361V28.18c0-1.205,0.977-2.181,2.181-2.181h10.906c1.205,0,2.181,0.976,2.181,2.181V41.267z M52.5,11.919h-1.222
	c-0.98,0-1.81,0.726-1.939,1.698l-3.46,25.952c-0.13,0.972-0.959,1.698-1.94,1.698H7.5 M19.239,48.115
	c0,1.619-1.314,2.935-2.935,2.935c-1.62,0-2.934-1.316-2.934-2.935c0-1.619,1.314-2.935,2.934-2.935
	C17.925,45.18,19.239,46.495,19.239,48.115z M40.761,48.115c0,1.619-1.315,2.935-2.935,2.935s-2.935-1.316-2.935-2.935
	c0-1.619,1.315-2.935,2.935-2.935S40.761,46.495,40.761,48.115z"/>
</svg>
