<?xml version="1.0" encoding="utf-8"?>
<!-- Generator: Adobe Illustrator 23.0.6, SVG Export Plug-In . SVG Version: 6.00 Build 0)  -->
<svg version="1.1" id="Layer_1" xmlns="http://www.w3.org/2000/svg" xmlns:xlink="http://www.w3.org/1999/xlink" x="0px" y="0px"
	 viewBox="0 0 34.1 30" style="enable-background:new 0 0 34.1 30;" xml:space="preserve">
<style type="text/css">
	.st0{fill:#FFFFFF;}
</style>
<path class="st0" d="M28,24.7V12.2c0-1.3-1.1-2.4-2.4-2.4s-2.4,1.1-2.4,2.4V19c0,3.3-2.7,6-6,6s-6-2.7-6-6v-6.7
	c0-1.3-1.1-2.4-2.4-2.4S6.4,11,6.4,12.3v12.4H1.6V12.2c0-4,3.2-7.2,7.2-7.2S16,8.2,16,12.2V19c0,0.7,0.5,1.2,1.2,1.2
	s1.2-0.5,1.2-1.2v-6.7c0-4.1,3.2-7.3,7.2-7.3s7.2,3.2,7.2,7.2v12.4H28V24.7z"/>
</svg>
